<svg width="214" height="214" viewBox="0 0 214 214" fill="none" xmlns="http://www.w3.org/2000/svg">
<path d="M108.262 203.78C163.707 203.78 208.653 177.83 208.653 145.818C208.653 113.806 163.707 87.855 108.262 87.855C52.8184 87.855 7.87207 113.806 7.87207 145.818C7.87207 177.83 52.8184 203.78 108.262 203.78Z" fill="#EFF2EE"/>
<path d="M174.455 174.242C190.184 174.242 202.935 166.88 202.935 157.798C202.935 148.717 190.184 141.354 174.455 141.354C158.726 141.354 145.975 148.717 145.975 157.798C145.975 166.88 158.726 174.242 174.455 174.242Z" fill="#EFF2EE"/>
<path d="M102.378 166.669L70.25 148.113L106.973 126.912L139.105 145.464L102.378 166.669Z" fill="#EFF2EE"/>
<path d="M14.8945 160.93L56.3324 184.853L91.0887 164.791L49.6508 140.868L14.8945 160.93Z" fill="#EFF2EE"/>
<path d="M137.63 132.267C137.566 131.187 137.421 129.894 137.246 128.392C136.593 122.692 135.702 114.884 138.065 107.405C139.503 102.852 142.968 97.4548 148.378 95.9572C149.581 95.6244 152.491 95.1337 153.609 97.7151C153.766 98.088 153.86 98.4846 153.886 98.8884C154.001 100.527 153.263 101.973 152.444 103.292C151.501 104.823 150.409 106.278 149.351 107.695C148.352 109.035 147.315 110.417 146.411 111.851C145.434 113.408 144.578 115.039 143.851 116.727L143.505 116.578C144.231 114.872 145.087 113.225 146.065 111.65C146.974 110.204 148.015 108.813 149.022 107.469C150.072 106.061 151.155 104.61 152.094 103.095C152.879 101.815 153.587 100.446 153.481 98.914C153.458 98.5528 153.374 98.198 153.233 97.8644C152.235 95.5561 149.555 96.0169 148.45 96.3199C143.185 97.7791 139.802 103.061 138.394 107.516C136.056 114.923 136.943 122.684 137.592 128.35C137.762 129.856 137.912 131.157 137.976 132.245L137.63 132.267Z" fill="#45FEC9"/>
<path d="M138.014 138.47C137.986 138.474 137.957 138.474 137.929 138.47C137.847 138.454 137.77 138.419 137.704 138.368C137.638 138.317 137.585 138.251 137.549 138.176C137.475 137.964 137.475 137.734 137.549 137.523C137.609 137.114 137.609 136.699 137.549 136.29C137.549 136.059 137.511 135.816 137.511 135.598V132.949C137.851 128.189 139.246 123.565 141.594 119.411C143.676 115.788 145.98 113.378 148.847 111.816C150.393 110.967 152.088 110.424 153.839 110.216C155.385 110.045 156.94 110.456 158.2 111.368C159.501 112.396 160.086 114.158 159.595 115.554C159.249 116.531 158.46 117.26 157.654 117.922C156.216 119.095 154.646 120.145 153.131 121.16C151.872 122.013 150.571 122.867 149.355 123.805C145.635 126.677 142.514 130.25 140.169 134.323C139.785 134.984 139.422 135.667 139.089 136.349L138.953 136.618C138.82 136.862 138.703 137.114 138.603 137.373C138.582 137.429 138.56 137.544 138.53 137.676C138.509 137.92 138.431 138.155 138.304 138.363C138.224 138.434 138.121 138.472 138.014 138.47ZM154.454 110.57C154.262 110.57 154.07 110.57 153.873 110.596C152.174 110.794 150.529 111.322 149.031 112.149C146.232 113.672 143.975 116.04 141.927 119.599C139.61 123.701 138.233 128.267 137.895 132.966V135.59C137.895 135.795 137.895 136.017 137.933 136.251C138.002 136.698 138.002 137.153 137.933 137.6C137.887 137.738 137.887 137.888 137.933 138.026C137.944 138.048 137.96 138.067 137.979 138.081C137.998 138.096 138.02 138.107 138.044 138.112C138.12 137.954 138.172 137.786 138.198 137.612C138.218 137.494 138.246 137.377 138.283 137.262C138.387 136.989 138.51 136.722 138.65 136.465L138.782 136.2C139.123 135.509 139.49 134.822 139.874 134.152C140.672 132.772 141.557 131.443 142.524 130.176C144.436 127.678 146.666 125.442 149.159 123.524C150.387 122.585 151.693 121.711 152.956 120.866C154.466 119.855 156.024 118.809 157.453 117.649C158.213 117.03 158.959 116.334 159.275 115.447C159.702 114.197 159.177 112.614 157.995 111.68C156.974 110.919 155.726 110.528 154.454 110.57Z" fill="#45FEC9"/>
<path d="M137.695 134.827H137.648C137.624 134.821 137.601 134.811 137.581 134.796C137.561 134.782 137.544 134.764 137.531 134.742C137.519 134.721 137.51 134.698 137.507 134.674C137.503 134.649 137.505 134.624 137.511 134.6C141.031 120.563 150.763 114.3 155.96 112.811C156.008 112.797 156.058 112.803 156.102 112.827C156.145 112.851 156.177 112.891 156.191 112.939C156.204 112.987 156.198 113.038 156.174 113.082C156.15 113.126 156.11 113.158 156.063 113.173C150.943 114.637 141.355 120.819 137.878 134.69C137.866 134.729 137.842 134.764 137.809 134.789C137.776 134.813 137.736 134.826 137.695 134.827V134.827Z" fill="#45FEC9"/>
<path d="M137.672 123.306C137.622 123.302 137.576 123.278 137.543 123.24C137.51 123.202 137.494 123.152 137.498 123.102C138.62 107.942 148.535 99.635 149.662 98.7433C149.681 98.7272 149.703 98.7152 149.727 98.708C149.751 98.7008 149.776 98.6986 149.8 98.7014C149.825 98.7041 149.849 98.712 149.871 98.7243C149.892 98.7366 149.911 98.7533 149.926 98.7731C149.942 98.7924 149.953 98.8146 149.96 98.8384C149.967 98.8621 149.969 98.887 149.966 98.9116C149.964 98.9362 149.956 98.96 149.944 98.9816C149.932 99.0032 149.916 99.0223 149.896 99.0377C148.783 99.9209 138.982 108.13 137.877 123.132C137.872 123.181 137.848 123.227 137.81 123.26C137.772 123.292 137.722 123.309 137.672 123.306V123.306Z" fill="#45FEC9"/>
<path d="M136.491 70.4383L112.764 56.7466C112.58 56.6148 112.365 56.534 112.14 56.5123C111.916 56.4906 111.689 56.5287 111.484 56.6228L109.777 57.6084C109.59 57.7391 109.44 57.9176 109.345 58.1254C109.25 58.3333 109.212 58.5629 109.235 58.7903V123.733C109.27 124.366 109.454 124.982 109.771 125.53C110.088 126.079 110.53 126.545 111.061 126.891L134.784 140.565C134.967 140.698 135.182 140.779 135.407 140.802C135.632 140.824 135.858 140.787 136.064 140.693L137.771 139.703C137.956 139.572 138.103 139.394 138.197 139.187C138.291 138.98 138.328 138.752 138.304 138.526V73.5956C138.271 72.9639 138.09 72.3489 137.775 71.8004C137.46 71.2518 137.02 70.7852 136.491 70.4383V70.4383Z" fill="#082018"/>
<path d="M114.346 124.847L112.64 125.833V131.234C112.648 131.393 112.694 131.547 112.773 131.684C112.853 131.821 112.963 131.937 113.096 132.024L113.894 132.485C114.036 132.556 114.192 132.593 114.351 132.593C114.509 132.593 114.666 132.556 114.807 132.485L115.605 132.024C115.888 131.841 116.108 131.574 116.232 131.26L117.772 126.823L114.346 124.847Z" fill="#082018"/>
<path d="M112.64 131.234C112.648 131.392 112.694 131.546 112.773 131.683C112.853 131.821 112.963 131.937 113.096 132.023L113.894 132.484C113.949 132.518 114.011 132.538 114.075 132.544C114.139 132.55 114.204 132.541 114.264 132.519C114.325 132.496 114.379 132.46 114.424 132.414C114.468 132.367 114.502 132.311 114.521 132.25L116.053 127.808L112.64 125.833V131.234Z" fill="#3F4944"/>
<path d="M131.464 134.699L129.758 135.689V141.086C129.766 141.244 129.811 141.399 129.889 141.537C129.968 141.675 130.078 141.792 130.21 141.88L131.012 142.34C131.153 142.412 131.309 142.449 131.467 142.449C131.625 142.449 131.78 142.412 131.921 142.34L132.723 141.88C133.007 141.696 133.226 141.429 133.35 141.116L134.886 136.674L131.464 134.699Z" fill="#082018"/>
<path d="M129.758 141.086C129.766 141.244 129.811 141.399 129.889 141.537C129.968 141.674 130.078 141.792 130.21 141.879L131.012 142.34C131.067 142.374 131.129 142.394 131.193 142.4C131.258 142.406 131.322 142.397 131.383 142.375C131.443 142.352 131.497 142.316 131.542 142.27C131.586 142.223 131.62 142.167 131.639 142.106L133.18 137.664L129.766 135.688L129.758 141.086Z" fill="#3F4944"/>
<path d="M111.173 57.7835L134.895 71.4369C135.426 71.7835 135.869 72.2504 136.186 72.7997C136.503 73.3489 136.686 73.9651 136.721 74.5985V139.541C136.766 139.77 136.739 140.006 136.643 140.218C136.547 140.43 136.387 140.606 136.186 140.722C135.984 140.838 135.751 140.889 135.52 140.866C135.289 140.843 135.07 140.748 134.895 140.595L111.173 126.916C110.642 126.57 110.201 126.104 109.884 125.556C109.567 125.007 109.385 124.391 109.351 123.759V58.8331C109.305 58.6054 109.332 58.3692 109.428 58.1576C109.524 57.9461 109.683 57.7699 109.885 57.654C110.086 57.538 110.318 57.4882 110.549 57.5114C110.781 57.5347 110.998 57.6299 111.173 57.7835V57.7835Z" fill="#3F4944"/>
<path d="M76.7227 146.551L102.382 161.365L138.308 140.625L136.597 139.635L110.937 124.821L76.7227 144.576V146.551Z" fill="#4C6359"/>
<path d="M102.383 161.365V159.39L138.308 138.649V140.625L102.383 161.365Z" fill="#082018"/>
<path d="M102.544 158.49L102.284 158.315C106.837 151.424 106.807 139.52 106.436 136.534C106.406 136.333 106.384 136.209 106.38 136.163L106.692 136.111C106.692 136.205 106.726 136.316 106.743 136.448C107.076 138.56 108.957 150.033 111.184 153.515L110.92 153.686C109.158 150.951 107.652 143.569 106.896 139.311C106.943 144.145 106.239 152.931 102.544 158.49Z" fill="#FAFDF9"/>
<path d="M117.53 147.968C117.142 147.853 108.071 145.105 107.234 141.103L107.546 141.039C108.339 144.858 117.526 147.64 117.619 147.669L117.53 147.968Z" fill="#FAFDF9"/>
<path d="M108.373 146.347L108.143 145.369C108.111 145.19 108.02 145.027 107.883 144.906C107.747 144.785 107.574 144.714 107.392 144.704C107.242 144.682 107.088 144.707 106.952 144.774C106.817 144.842 106.705 144.95 106.632 145.084L106.338 144.96C106.437 144.765 106.593 144.605 106.787 144.503C106.98 144.4 107.2 144.36 107.417 144.388C107.574 144.398 107.727 144.441 107.866 144.515C108.005 144.588 108.127 144.691 108.224 144.815C108.275 144.41 108.482 144.042 108.8 143.787C108.92 143.724 109.055 143.693 109.191 143.697C109.327 143.702 109.46 143.741 109.576 143.812L109.435 144.094C109.364 144.048 109.283 144.021 109.198 144.016C109.114 144.011 109.03 144.027 108.953 144.064C108.591 144.269 108.45 145.058 108.429 145.344L108.373 146.347Z" fill="#FAFDF9"/>
<path d="M109.265 149.602L108.983 148.715C108.663 147.712 108.13 147.136 107.499 147.098C107.235 147.093 106.975 147.165 106.752 147.305C106.528 147.445 106.35 147.647 106.24 147.887L105.954 147.751C106.089 147.451 106.31 147.198 106.589 147.024C106.867 146.85 107.192 146.763 107.52 146.773C107.9 146.795 108.553 147 109.039 147.989C109.146 147.209 109.466 145.954 110.289 145.429C110.585 145.267 110.917 145.184 111.254 145.188C111.591 145.192 111.921 145.282 112.213 145.451L112.081 145.737C111.837 145.592 111.559 145.513 111.275 145.506C110.992 145.499 110.711 145.565 110.46 145.698C109.363 146.381 109.291 148.638 109.291 148.664L109.265 149.602Z" fill="#FAFDF9"/>
<path d="M105.412 151.77L105.131 151.625C105.762 150.409 107.149 149.534 108.352 149.594C108.607 149.597 108.859 149.657 109.088 149.77C109.317 149.883 109.517 150.046 109.675 150.247C109.791 149.633 110.03 149.048 110.377 148.529C110.725 148.01 111.174 147.567 111.697 147.226C112.259 146.853 112.907 146.63 113.58 146.58C114.252 146.53 114.926 146.654 115.537 146.94L115.414 147.226C114.851 146.965 114.231 146.853 113.613 146.899C112.994 146.945 112.398 147.149 111.881 147.49C111.327 147.849 110.865 148.332 110.532 148.901C110.199 149.47 110.003 150.109 109.961 150.767V151.573L109.662 150.822C109.563 150.556 109.385 150.325 109.152 150.162C108.919 149.999 108.641 149.911 108.356 149.909C107.251 149.854 105.993 150.656 105.412 151.77Z" fill="#FAFDF9"/>
<path d="M103.68 156.48L103.402 156.326C103.786 155.627 105.83 152.111 108.249 151.475C108.591 151.377 108.949 151.353 109.301 151.404C109.652 151.454 109.989 151.579 110.289 151.77L110.127 152.038C109.862 151.871 109.566 151.762 109.256 151.717C108.947 151.672 108.631 151.693 108.33 151.778C106.555 152.247 104.721 154.603 103.68 156.48Z" fill="#FAFDF9"/>
<path d="M134.886 118.895V120.87L102.382 139.635L76.7227 124.821V122.846L109.226 104.081L134.886 118.895Z" fill="#082018"/>
<path d="M134.886 118.895L102.382 137.66L76.7227 122.846L109.226 104.081L134.886 118.895Z" fill="#4C6359"/>
<path d="M134.886 97.1692V99.1404L102.382 117.909L76.7227 103.091V101.12L109.226 82.3511L134.886 97.1692Z" fill="#082018"/>
<path d="M134.886 97.1692L102.382 115.934L76.7227 101.12L109.226 82.3511L134.886 97.1692Z" fill="#4C6359"/>
<path d="M102.272 90.168L78.5489 76.4933C78.3658 76.3609 78.151 76.2793 77.9261 76.2568C77.7013 76.2344 77.4746 76.2718 77.2689 76.3653C76.9617 76.5403 75.8694 77.176 75.5622 77.3509C75.3754 77.4821 75.227 77.6608 75.1325 77.8686C75.0379 78.0764 75.0007 78.3057 75.0246 78.5328V143.459C75.0595 144.091 75.243 144.707 75.5603 145.256C75.8775 145.804 76.3197 146.27 76.8508 146.616L100.573 160.295C100.757 160.427 100.971 160.509 101.196 160.531C101.421 160.554 101.648 160.516 101.853 160.423C102.161 160.244 103.261 159.612 103.56 159.429C103.748 159.299 103.897 159.121 103.994 158.914C104.09 158.707 104.128 158.478 104.106 158.251V93.3296C104.071 92.6953 103.887 92.0784 103.568 91.5289C103.249 90.9795 102.805 90.5132 102.272 90.168V90.168Z" fill="#082018"/>
<path opacity="0.2" d="M102.382 100.135L104.097 99.145V93.2144L102.378 94.2042L102.382 100.135Z" fill="#002116"/>
<path opacity="0.2" d="M136.601 80.3801L138.316 79.3945V73.4639L136.597 74.4537L136.601 80.3801Z" fill="#002116"/>
<path d="M80.1451 144.577L78.4385 145.562V150.964C78.4471 151.122 78.493 151.276 78.5723 151.413C78.6516 151.55 78.7622 151.667 78.895 151.753L79.6929 152.214C79.8344 152.286 79.9908 152.323 80.1494 152.323C80.308 152.323 80.4644 152.286 80.6059 152.214L81.4038 151.753C81.6862 151.571 81.9053 151.306 82.031 150.994L83.5713 146.552L80.1451 144.577Z" fill="#082018"/>
<path d="M78.4336 150.964C78.4422 151.122 78.4881 151.276 78.5674 151.413C78.6467 151.55 78.7573 151.667 78.8901 151.753L79.688 152.214C79.7431 152.247 79.8051 152.268 79.8692 152.274C79.9334 152.28 79.9981 152.271 80.0584 152.248C80.1188 152.226 80.1732 152.19 80.2177 152.143C80.2622 152.097 80.2955 152.04 80.3152 151.979L81.8555 147.537L78.4421 145.562L78.4336 150.964Z" fill="#3F4944"/>
<path d="M97.2496 154.454L95.543 155.439V160.841C95.5508 160.999 95.5958 161.153 95.6744 161.29C95.753 161.427 95.863 161.544 95.9952 161.63L96.7974 162.091C96.9381 162.163 97.0938 162.2 97.2518 162.2C97.4097 162.2 97.5654 162.163 97.7062 162.091L98.5083 161.63C98.7896 161.446 99.0083 161.182 99.1355 160.871L100.672 156.429L97.2496 154.454Z" fill="#082018"/>
<path d="M95.543 160.82C95.5508 160.977 95.5958 161.131 95.6744 161.268C95.753 161.406 95.863 161.522 95.9952 161.609L96.7974 162.07C96.8525 162.103 96.9145 162.124 96.9786 162.13C97.0428 162.136 97.1075 162.127 97.1678 162.104C97.2282 162.082 97.2826 162.046 97.3271 161.999C97.3716 161.953 97.4049 161.896 97.4246 161.835L98.9606 157.393L95.5472 155.418L95.543 160.82Z" fill="#3F4944"/>
<path d="M76.8337 77.4833L100.561 91.1579C101.091 91.5048 101.533 91.9718 101.849 92.5211C102.166 93.0704 102.348 93.6865 102.383 94.3195V161.366C102.383 161.366 101.064 160.585 100.561 160.295L76.838 146.616C76.3069 146.27 75.8648 145.804 75.5475 145.256C75.2302 144.707 75.0467 144.091 75.0119 143.459V78.5329C74.9662 78.3051 74.9932 78.0689 75.089 77.8573C75.1848 77.6458 75.3446 77.4696 75.5458 77.3537C75.747 77.2377 75.9796 77.1879 76.2106 77.2111C76.4417 77.2344 76.6596 77.3296 76.8337 77.4833V77.4833Z" fill="#3F4944"/>
<path opacity="0.2" d="M100.561 91.1579L76.8337 77.4833C76.6596 77.3296 76.4417 77.2344 76.2106 77.2111C75.9796 77.1879 75.747 77.2377 75.5458 77.3537C75.3446 77.4696 75.1848 77.6458 75.089 77.8573C74.9932 78.0689 74.9662 78.3051 75.0119 78.5329V84.3313L102.383 100.118V94.3195C102.348 93.6865 102.166 93.0704 101.849 92.5211C101.533 91.9718 101.091 91.5048 100.561 91.1579Z" fill="#002116"/>
<path d="M133.175 97.327C133.134 97.3259 133.094 97.3089 133.065 97.2796C133.036 97.2502 133.019 97.2107 133.017 97.1691V77.6875L114.436 88.4139C114.419 88.4252 114.399 88.4328 114.379 88.4361C114.358 88.4394 114.337 88.4384 114.317 88.4332C114.297 88.428 114.278 88.4187 114.262 88.4058C114.246 88.3929 114.232 88.3768 114.223 88.3585C114.212 88.3406 114.205 88.3207 114.202 88.3C114.199 88.2794 114.2 88.2583 114.205 88.2381C114.21 88.2178 114.219 88.1988 114.232 88.1821C114.244 88.1655 114.26 88.1514 114.278 88.1409L133.12 77.2779C133.144 77.2632 133.171 77.2554 133.199 77.2554C133.227 77.2554 133.254 77.2632 133.278 77.2779C133.301 77.292 133.321 77.3121 133.334 77.336C133.348 77.36 133.355 77.387 133.355 77.4145V97.1691C133.355 97.1918 133.35 97.2142 133.341 97.2349C133.332 97.2556 133.318 97.2741 133.301 97.289C133.284 97.304 133.264 97.3152 133.242 97.3217C133.221 97.3283 133.198 97.3301 133.175 97.327V97.327Z" fill="#FAFDF9"/>
<path d="M129.753 92.386H129.706C129.665 92.3768 129.63 92.352 129.608 92.3168C129.585 92.2816 129.578 92.239 129.586 92.1983L132.769 78.4127L126.455 89.3482C126.445 89.3664 126.432 89.3825 126.415 89.3954C126.399 89.4083 126.381 89.4179 126.361 89.4235C126.341 89.429 126.32 89.4305 126.3 89.4279C126.279 89.4252 126.259 89.4184 126.241 89.4079C126.223 89.3977 126.207 89.3839 126.194 89.3674C126.181 89.3509 126.171 89.3319 126.166 89.3117C126.16 89.2914 126.159 89.2702 126.161 89.2494C126.164 89.2285 126.171 89.2084 126.182 89.1903L133.008 77.3375C133.028 77.3049 133.058 77.2803 133.094 77.2678C133.13 77.2553 133.169 77.2558 133.205 77.2692C133.24 77.2835 133.268 77.3099 133.286 77.3435C133.303 77.3772 133.307 77.4159 133.298 77.4527L129.885 92.2708C129.877 92.3012 129.861 92.3286 129.837 92.3492C129.813 92.3698 129.784 92.3826 129.753 92.386V92.386Z" fill="#FAFDF9"/>
<path d="M122.914 87.4669C122.892 87.467 122.87 87.4625 122.851 87.4537C122.831 87.4449 122.813 87.4319 122.798 87.4157C122.769 87.3862 122.753 87.3463 122.753 87.3048C122.753 87.2633 122.769 87.2234 122.798 87.1939L133.064 77.3165C133.094 77.2874 133.133 77.271 133.175 77.271C133.217 77.271 133.256 77.2874 133.286 77.3165C133.315 77.3468 133.332 77.3874 133.332 77.4296C133.332 77.4718 133.315 77.5124 133.286 77.5427L123.02 87.4157C123.007 87.4309 122.99 87.4432 122.972 87.452C122.954 87.4608 122.934 87.4659 122.914 87.4669V87.4669Z" fill="#FAFDF9"/>
<path d="M133.175 94.174C133.134 94.1729 133.094 94.1559 133.065 94.1266C133.036 94.0972 133.019 94.0577 133.018 94.0161C133.018 91.4305 130.133 91.2556 130.01 91.2513C129.986 91.2496 129.964 91.2431 129.943 91.232C129.922 91.221 129.904 91.2058 129.89 91.1873C129.877 91.1692 129.867 91.1483 129.863 91.1262C129.859 91.1041 129.859 91.0812 129.864 91.0593C129.97 90.5311 129.934 89.9845 129.761 89.4745C129.588 88.9644 129.284 88.5089 128.879 88.1537C128.731 88.0061 128.553 87.8917 128.357 87.8181C128.162 87.7446 127.953 87.7135 127.744 87.7271C127.633 87.7459 127.527 87.7884 127.433 87.8517C127.34 87.915 127.261 87.9976 127.202 88.094C127.184 88.1251 127.156 88.1493 127.123 88.1625C127.09 88.1756 127.053 88.1771 127.019 88.1665C126.984 88.156 126.955 88.1343 126.935 88.1048C126.915 88.0754 126.905 88.04 126.908 88.0044C126.908 87.9063 127.083 85.6065 125.06 85.3804C125.034 85.3772 125.009 85.3678 124.988 85.3529C124.966 85.3381 124.949 85.3182 124.936 85.2951C124.925 85.2726 124.919 85.2478 124.919 85.2225C124.919 85.1973 124.925 85.1724 124.936 85.15C124.936 85.15 125.832 83.4732 125.487 82.6497C125.447 82.553 125.385 82.4671 125.305 82.3989C125.226 82.3307 125.132 82.2821 125.03 82.2572C125.01 82.2518 124.991 82.2424 124.975 82.2295C124.958 82.2166 124.945 82.2004 124.935 82.1821C124.925 82.1637 124.919 82.1435 124.917 82.1226C124.915 82.1018 124.917 82.0808 124.924 82.0609C124.936 82.0214 124.964 81.9883 125 81.9684C125.037 81.9486 125.08 81.9435 125.12 81.9543C125.267 81.9921 125.403 82.0639 125.517 82.164C125.631 82.264 125.72 82.3895 125.777 82.5303C126.106 83.3111 125.551 84.6039 125.312 85.0903C126.882 85.3932 127.172 86.8737 127.215 87.6076C127.355 87.508 127.515 87.4396 127.684 87.4071C127.941 87.3822 128.199 87.4158 128.441 87.5052C128.683 87.5946 128.901 87.7376 129.079 87.9233C129.503 88.2972 129.828 88.7705 130.024 89.3007C130.22 89.8309 130.281 90.4015 130.202 90.9612C130.893 91.0508 133.333 91.5329 133.329 94.0247C133.327 94.0643 133.31 94.1017 133.281 94.1294C133.253 94.157 133.215 94.173 133.175 94.174V94.174Z" fill="#FAFDF9"/>
<path d="M133.176 89.9158C133.136 89.916 133.098 89.9011 133.068 89.8742C133.039 89.8473 133.021 89.8104 133.018 89.7708C132.95 88.8662 132.425 87.6972 131.763 87.407C131.632 87.3485 131.487 87.3294 131.345 87.3522C131.204 87.3749 131.072 87.4384 130.966 87.535C130.939 87.5518 130.909 87.5606 130.878 87.5606C130.847 87.5606 130.817 87.5518 130.791 87.535C130.764 87.5202 130.741 87.4977 130.727 87.4704C130.713 87.4431 130.707 87.4122 130.71 87.3814C130.71 87.3814 130.85 85.7814 130.129 85.1201C129.973 84.9895 129.787 84.8981 129.589 84.8536C129.39 84.809 129.183 84.8126 128.986 84.8641C128.959 84.8699 128.93 84.8682 128.904 84.8592C128.878 84.8501 128.854 84.8341 128.836 84.8129C128.818 84.7914 128.806 84.7656 128.801 84.7379C128.795 84.7102 128.797 84.6817 128.807 84.655C128.952 84.2582 129.233 83.1446 128.854 82.7478C128.674 82.5644 128.346 82.5473 127.872 82.7009C127.84 82.7116 127.805 82.7116 127.773 82.7008C127.74 82.69 127.712 82.6691 127.693 82.6412C127.674 82.6137 127.663 82.5809 127.663 82.5473C127.663 82.5137 127.674 82.4809 127.693 82.4534C127.958 82.1206 128.61 81.1478 128.448 80.6828C128.421 80.6185 128.378 80.5626 128.323 80.5206C128.267 80.4786 128.202 80.4521 128.132 80.4438C128.112 80.4388 128.093 80.4299 128.077 80.4175C128.06 80.4052 128.046 80.3896 128.035 80.3718C128.024 80.3539 128.017 80.3342 128.014 80.3136C128.011 80.293 128.012 80.272 128.017 80.2518C128.021 80.2315 128.029 80.2122 128.041 80.1952C128.053 80.1781 128.068 80.1637 128.086 80.1529C128.103 80.1421 128.123 80.135 128.144 80.1322C128.164 80.1294 128.185 80.1309 128.205 80.1366C128.325 80.1541 128.438 80.2027 128.533 80.2776C128.628 80.3524 128.702 80.451 128.747 80.5633C128.922 81.071 128.495 81.8433 128.196 82.27C128.35 82.2334 128.511 82.2348 128.664 82.2743C128.817 82.3137 128.958 82.3898 129.075 82.4961C129.545 82.9825 129.319 84.0108 129.178 84.4929C129.386 84.468 129.597 84.4875 129.797 84.55C129.997 84.6125 130.181 84.7166 130.338 84.8556C130.974 85.4358 131.042 86.5622 131.034 87.0785C131.167 87.0157 131.313 86.9832 131.46 86.9832C131.608 86.9832 131.754 87.0157 131.887 87.0785C132.694 87.4326 133.252 88.6913 133.334 89.711C133.335 89.7315 133.333 89.7522 133.326 89.7718C133.32 89.7914 133.31 89.8094 133.296 89.825C133.283 89.8405 133.266 89.8531 133.248 89.8622C133.229 89.8712 133.209 89.8764 133.188 89.8774L133.176 89.9158Z" fill="#FAFDF9"/>
<path d="M142.365 70.5025C142.345 70.276 142.265 70.0589 142.133 69.8737C142.001 69.6884 141.822 69.5417 141.614 69.4486L116.181 54.7628C115.615 54.4767 114.99 54.3276 114.357 54.3276C113.723 54.3276 113.098 54.4767 112.533 54.7628L73.416 77.3505C73.2085 77.4436 73.0295 77.5903 72.8975 77.7755C72.7655 77.9608 72.6853 78.1778 72.665 78.4044V80.3798C72.6853 80.6064 72.7655 80.8234 72.8975 81.0086C73.0295 81.1939 73.2085 81.3406 73.416 81.4337L98.8496 96.1153C99.4144 96.4034 100.039 96.5535 100.674 96.5535C101.308 96.5535 101.933 96.4034 102.498 96.1153L141.614 73.5318C141.822 73.4387 142.001 73.292 142.133 73.1068C142.265 72.9216 142.345 72.7045 142.365 72.478V70.5025Z" fill="#3F4944"/>
<path d="M98.8499 94.1398L73.4163 79.4582C72.4094 78.8737 72.4094 77.9308 73.4163 77.3505L112.533 54.7628C113.099 54.4767 113.723 54.3276 114.357 54.3276C114.991 54.3276 115.616 54.4767 116.181 54.7628L141.615 69.4486C142.626 70.0332 142.626 70.9718 141.615 71.5564L102.498 94.1398C101.933 94.4279 101.308 94.5781 100.674 94.5781C100.04 94.5781 99.4148 94.4279 98.8499 94.1398V94.1398Z" fill="#4C6359"/>
<path opacity="0.1" d="M136.597 76.4243L124.625 91.2425L104.098 103.095L104.094 95.1934L136.597 76.4243Z" fill="#002116"/>
<path opacity="0.1" d="M134.886 99.1401L124.625 112.968L104.098 124.825V116.919L134.886 99.1401Z" fill="#002116"/>
<path opacity="0.1" d="M134.886 120.87L124.625 134.698L104.098 146.555V138.649L134.886 120.87Z" fill="#002116"/>
<path d="M87.7995 164.028L56.3286 182.199L20.8896 161.689L52.3606 143.522L87.7995 164.028Z" fill="#45FEC9"/>
<path opacity="0.5" d="M87.7995 164.028L56.3286 182.199L20.8896 161.689L52.3606 143.522L87.7995 164.028Z" fill="#002116"/>
<path d="M52.3606 118.891V143.522L20.8896 161.69V137.062L52.3606 118.891Z" fill="#45FEC9"/>
<path opacity="0.23" d="M52.3606 118.891V143.522L20.8896 161.69V137.062L52.3606 118.891Z" fill="#002116"/>
<path d="M56.3286 157.568V182.2L20.8896 161.69V137.062L56.3286 157.568Z" fill="#45FEC9"/>
<path opacity="0.38" d="M56.3286 157.568V182.2L20.8896 161.69V137.062L56.3286 157.568Z" fill="#002116"/>
<path d="M87.7993 139.396V164.028L52.3604 143.522V118.891L87.7993 139.396Z" fill="#45FEC9"/>
<path opacity="0.4" d="M87.7993 139.396V164.028L52.3604 143.522V118.891L87.7993 139.396Z" fill="#002116"/>
<path d="M87.7991 164.027V139.396L56.3281 157.568V182.199L87.7991 164.027Z" fill="#45FEC9"/>
<path opacity="0.23" d="M87.7991 164.027V139.396L56.3281 157.568V182.199L87.7991 164.027Z" fill="#002116"/>
<path d="M52.3604 118.891L52.403 105.254L87.7566 125.786L87.7993 139.396L52.3604 118.891Z" fill="#45FEC9"/>
<path opacity="0.2" d="M52.3604 118.891L52.403 105.254L87.7566 125.786L87.7993 139.396L52.3604 118.891Z" fill="#002116"/>
<path d="M56.3281 157.568L59.2807 145.638L90.4657 127.633L87.799 139.396L56.3281 157.568Z" fill="#45FEC9"/>
<path opacity="0.3" d="M56.3281 157.568L59.2807 145.638L90.4657 127.633L87.799 139.396L56.3281 157.568Z" fill="#002116"/>
<path d="M20.8894 137.062L17.1348 124.689L48.6057 106.521L52.3604 118.891L20.8894 137.062Z" fill="#45FEC9"/>
<path opacity="0.1" d="M20.8894 137.062L17.1348 124.689L48.6057 106.521L52.3604 118.891L20.8894 137.062Z" fill="#002116"/>
<path d="M20.8894 137.062L13.4824 126.835L48.9256 147.341L56.3283 157.568L20.8894 137.062Z" fill="#45FEC9"/>
<path opacity="0.45" d="M20.8894 137.062L13.4824 126.835L48.9256 147.341L56.3283 157.568L20.8894 137.062Z" fill="#002116"/>
<g opacity="0.7">
<path opacity="0.7" d="M65.5957 174.874C65.5444 174.874 65.4951 174.854 65.4584 174.818C65.4217 174.782 65.4005 174.733 65.3994 174.682V170.347C65.4005 170.295 65.4215 170.246 65.4581 170.209C65.4947 170.173 65.544 170.151 65.5957 170.15C65.647 170.152 65.6958 170.173 65.7317 170.209C65.7676 170.246 65.7877 170.295 65.7877 170.347V174.682C65.7877 174.733 65.7674 174.781 65.7314 174.817C65.6954 174.853 65.6466 174.874 65.5957 174.874V174.874Z" fill="#FAFDF9"/>
<path opacity="0.7" d="M65.0283 171.848C65.0028 171.852 64.9769 171.852 64.9515 171.848C64.9049 171.827 64.8683 171.788 64.8493 171.741C64.8303 171.693 64.8302 171.64 64.8491 171.592L65.5403 170.001L66.3083 170.888C66.3358 170.928 66.3476 170.977 66.3416 171.025C66.3356 171.072 66.3121 171.117 66.2757 171.148C66.2392 171.18 66.1923 171.197 66.144 171.196C66.0957 171.196 66.0494 171.177 66.0139 171.144L65.6512 170.718L65.2245 171.742C65.2061 171.777 65.1776 171.806 65.1426 171.825C65.1077 171.844 65.0679 171.852 65.0283 171.848V171.848Z" fill="#FAFDF9"/>
<path opacity="0.7" d="M67.3834 173.854C67.3321 173.853 67.2833 173.831 67.2474 173.795C67.2115 173.758 67.1914 173.709 67.1914 173.657V169.327C67.1914 169.276 67.2116 169.227 67.2476 169.191C67.2837 169.155 67.3325 169.135 67.3834 169.135C67.4343 169.135 67.4832 169.155 67.5192 169.191C67.5552 169.227 67.5754 169.276 67.5754 169.327V173.653C67.576 173.679 67.5715 173.705 67.5621 173.729C67.5528 173.753 67.5388 173.775 67.521 173.793C67.5031 173.812 67.4818 173.827 67.4582 173.837C67.4346 173.848 67.4092 173.853 67.3834 173.854V173.854Z" fill="#FAFDF9"/>
<path opacity="0.7" d="M66.8164 170.829C66.7909 170.833 66.765 170.833 66.7396 170.829C66.7161 170.819 66.695 170.804 66.6773 170.785C66.6597 170.767 66.6459 170.745 66.6367 170.721C66.6276 170.698 66.6233 170.672 66.6241 170.647C66.6249 170.621 66.6308 170.596 66.6414 170.573L67.3284 168.96L68.0964 169.843C68.1318 169.88 68.1516 169.929 68.1516 169.98C68.1516 170.031 68.1318 170.08 68.0964 170.116C68.0785 170.134 68.0572 170.149 68.0338 170.158C68.0104 170.168 67.9852 170.173 67.9598 170.173C67.9344 170.173 67.9093 170.168 67.8859 170.158C67.8624 170.149 67.8412 170.134 67.8233 170.116L67.4606 169.69L67.034 170.714C67.0163 170.755 66.9851 170.789 66.9455 170.81C66.9059 170.83 66.8603 170.837 66.8164 170.829Z" fill="#FAFDF9"/>
</g>
<g opacity="0.7">
<path opacity="0.7" d="M60.438 177.813C60.3651 177.814 60.2931 177.797 60.229 177.762C60.1518 177.713 60.0893 177.643 60.0481 177.562C60.0068 177.48 59.9882 177.388 59.9943 177.297V176.764C59.9954 176.712 60.0166 176.663 60.0533 176.628C60.0899 176.592 60.1392 176.572 60.1906 176.572C60.2415 176.572 60.2903 176.592 60.3263 176.628C60.3623 176.664 60.3826 176.713 60.3826 176.764V177.297C60.3826 177.374 60.3826 177.416 60.421 177.425C60.4594 177.433 60.4807 177.425 60.5447 177.391C60.6648 177.28 60.7594 177.144 60.822 176.993C60.8846 176.842 60.9137 176.679 60.9074 176.516V174.297C60.9074 174.247 60.9276 174.198 60.9636 174.162C60.9996 174.126 61.0484 174.105 61.0994 174.105C61.1503 174.105 61.1991 174.126 61.2351 174.162C61.2711 174.198 61.2914 174.247 61.2914 174.297V176.516C61.3009 176.746 61.256 176.976 61.1604 177.186C61.0648 177.395 60.9211 177.58 60.741 177.724C60.6498 177.78 60.5452 177.811 60.438 177.813V177.813Z" fill="#FAFDF9"/>
<path opacity="0.7" d="M58.4023 176.026V175.693C58.4531 174.838 58.7028 174.008 59.1318 173.267C59.5607 172.526 60.1569 171.896 60.8727 171.426C61.5725 171.025 62.2381 170.965 62.7501 171.264C63.0232 171.451 63.2409 171.709 63.3805 172.009C63.5201 172.309 63.5765 172.641 63.5437 172.971V173.082L58.4023 176.026ZM62.0333 171.443C61.6916 171.459 61.3597 171.562 61.069 171.742C60.4556 172.146 59.9362 172.676 59.546 173.299C59.1558 173.921 58.904 174.619 58.8077 175.347L63.1469 172.838C63.1654 172.591 63.1197 172.344 63.0143 172.119C62.9089 171.895 62.7473 171.702 62.5453 171.558C62.3876 171.476 62.2111 171.436 62.0333 171.443V171.443Z" fill="#FAFDF9"/>
</g>
<path opacity="0.7" d="M13.4824 126.835L48.9256 147.341L56.3283 157.568L48.5331 147.703L13.4824 126.835Z" fill="#FAFDF9"/>
<path opacity="0.7" d="M87.7991 139.396L56.3281 157.568V182.199L56.9169 158.063L87.7991 139.396Z" fill="#FAFDF9"/>
<path d="M41.6165 129.545C44.8634 129.075 47.8288 126.985 49.7232 124.356C50.6066 123.128 51.2574 121.749 51.6432 120.286C52.0529 118.918 52.1203 117.47 51.8394 116.07C51.2549 113.728 49.0874 112.341 46.7962 112.051C45.6336 111.898 44.4514 112.014 43.3402 112.388C42.1881 112.784 41.1885 113.53 40.4816 114.522C40.0383 115.05 39.7595 115.697 39.6794 116.382C39.6726 116.65 39.7672 116.911 39.9444 117.113C40.1215 117.315 40.3682 117.442 40.6352 117.47C41.3222 117.528 42.0088 117.354 42.585 116.975C43.2877 116.581 43.9066 116.053 44.4069 115.422C45.4801 114.097 46.2832 112.575 46.7706 110.942C47.1127 109.54 47.1127 108.077 46.7706 106.675C46.5108 105.209 45.8406 103.846 44.8378 102.746C43.6883 101.7 42.2294 101.058 40.6821 100.915C39.1421 100.704 37.5741 100.85 36.0997 101.342C35.4521 101.538 34.8521 101.867 34.3376 102.306C33.9706 102.648 33.5525 103.211 33.7018 103.765C33.8512 104.32 34.6618 104.568 35.2122 104.495C36.0268 104.342 36.773 103.938 37.3456 103.339C37.9837 102.711 38.5257 101.992 38.9541 101.205C39.2724 100.64 39.4385 100.002 39.4362 99.3537C39.3808 96.6486 36.3898 94.8993 34.0474 94.4043C33.4151 94.2722 32.7674 94.2291 32.1232 94.2763C31.9056 94.2763 32.0378 94.6347 32.2128 94.6219C33.4733 94.5647 34.726 94.8476 35.8394 95.4411C36.938 95.9461 37.8607 96.7677 38.489 97.8006C38.7691 98.3098 38.9073 98.8849 38.8893 99.4658C38.8713 100.047 38.6977 100.612 38.3866 101.103C37.9689 101.831 37.4487 102.494 36.8421 103.074C36.3344 103.535 35.5621 104.068 34.8496 104.017C34.7319 104.017 34.6167 103.984 34.5172 103.921C34.4176 103.858 34.3376 103.769 34.2864 103.663C34.2649 103.523 34.2764 103.38 34.3201 103.245C34.3639 103.11 34.4385 102.987 34.5381 102.886C34.9149 102.481 35.3808 102.168 35.8992 101.973C37.1792 101.441 38.5652 101.213 39.9482 101.308C41.3735 101.334 42.7596 101.779 43.9333 102.588C44.9558 103.437 45.6819 104.589 46.0069 105.877C46.4186 107.186 46.5466 108.568 46.3824 109.931C46.129 111.302 45.6023 112.608 44.8336 113.771C44.0442 115.076 43.0544 116.331 41.5696 116.843C41.2026 116.975 40.4346 117.167 40.2896 116.634C40.1445 116.1 40.5626 115.443 40.8314 115.029C41.4258 114.094 42.2924 113.363 43.3146 112.934C44.3011 112.539 45.3659 112.378 46.425 112.465C48.4346 112.614 50.4741 113.664 51.1738 115.661C51.5248 116.854 51.563 118.118 51.2848 119.33C51.0338 120.659 50.5561 121.935 49.8725 123.102C48.4022 125.581 46.1755 127.524 43.5194 128.644C42.888 128.917 42.2394 129.148 41.5781 129.361C41.5098 129.387 41.5397 129.557 41.6165 129.545Z" fill="#EFF2EE"/>
<path d="M28.053 92.5014C26.3463 92.3776 23.9954 93.7216 24.8317 94.703C25.6679 95.6843 27.8866 94.0971 27.8866 94.0971C27.8866 94.0971 27.6775 96.0811 28.4029 96.3072C29.1282 96.5334 30.1095 94.639 29.3842 93.4272C29.734 93.5651 30.113 93.6124 30.4859 93.5647C30.8589 93.5169 31.2137 93.3757 31.5175 93.1542C32.5501 92.3947 31.4578 91.6779 30.0029 91.8059C30.0029 91.8059 31.0439 88.3926 28.9405 89.0454C27.8866 89.3654 27.5154 90.5984 28.053 92.5014Z" fill="#45FEC9"/>
<path opacity="0.65" d="M28.053 92.5014C26.3463 92.3776 23.9954 93.7216 24.8317 94.703C25.6679 95.6843 27.8866 94.0971 27.8866 94.0971C27.8866 94.0971 27.6775 96.0811 28.4029 96.3072C29.1282 96.5334 30.1095 94.639 29.3842 93.4272C29.734 93.5651 30.113 93.6124 30.4859 93.5647C30.8589 93.5169 31.2137 93.3757 31.5175 93.1542C32.5501 92.3947 31.4578 91.6779 30.0029 91.8059C30.0029 91.8059 31.0439 88.3926 28.9405 89.0454C27.8866 89.3654 27.5154 90.5984 28.053 92.5014Z" fill="#FAFDF9"/>
<path d="M29.64 93.2266C29.5456 93.1341 29.4459 93.0472 29.3413 92.9663C29.192 92.8511 29.0341 92.7402 28.8848 92.6293C28.7394 92.5235 28.5869 92.428 28.4283 92.3434C28.337 92.2927 28.243 92.2472 28.1467 92.2069C28.0137 92.1444 27.8658 92.1208 27.72 92.1386C27.6818 92.1397 27.6446 92.151 27.6122 92.1714C27.5799 92.1918 27.5536 92.2205 27.5362 92.2545C27.5188 92.2885 27.5108 92.3266 27.5131 92.3647C27.5154 92.4029 27.5279 92.4397 27.5493 92.4714C27.6666 92.5984 27.8131 92.6951 27.976 92.753L28.2064 92.8767C28.3643 92.9706 28.5051 93.0772 28.6331 93.1839C28.7611 93.2906 28.9317 93.393 29.0597 93.4996C29.2798 93.6781 29.5259 93.822 29.7893 93.9263C29.8011 93.9327 29.8143 93.936 29.8277 93.936C29.8411 93.936 29.8543 93.9327 29.8661 93.9263C30.0837 93.7556 29.7637 93.3503 29.64 93.2266Z" fill="#4C6359"/>
<path d="M165.666 45.5637C163.802 48.0725 161.306 61.8666 160.363 66.2912C155.828 66.1589 149.76 65.9456 147.465 65.7066C144.905 65.4378 139.439 64.913 136.756 65.28C130.095 66.1333 130.356 70.5109 130.518 71.6544C130.693 72.96 131.627 73.5573 135.211 72.7424C136.013 72.5661 136.831 72.4704 137.652 72.4565C137.997 72.4565 138.727 72.2816 139 72.576C139.426 73.0026 138.193 73.7194 137.886 73.9157C137.413 74.2229 136.918 74.6112 136.82 75.1658C136.791 75.2673 136.793 75.3746 136.824 75.4752C136.855 75.5758 136.914 75.6653 136.994 75.7333C137.168 75.8042 137.363 75.8042 137.536 75.7333C139.172 75.3451 140.75 74.7441 142.23 73.9456C142.788 73.6093 143.374 73.3237 143.983 73.0922C144.909 72.7936 145.865 72.9685 146.795 72.9685C148.796 72.9685 159.373 74.0181 164.075 74.496C167.33 74.8245 167.676 71.6117 168.798 68.3562C170.176 64.32 173.44 43.0933 173.44 43.0933C170.147 42.6154 167.885 42.5856 165.666 45.5637Z" fill="#FFA8A7"/>
<path d="M173.491 42.7606C171.917 42.4704 168.371 42.031 166.443 44.1856C164.514 46.3403 164.058 48.6016 163.209 51.8656C162.36 55.1296 160.854 60.975 160.854 60.975C160.854 60.975 163.341 64.5462 171.128 63.535L173.491 42.7606Z" fill="#3F4944"/>
<path d="M193.046 155.58L187.571 155.584L185.997 143.701L192.905 143.428L193.046 155.58Z" fill="#FFA8A7"/>
<path d="M174.869 149.645C173.939 151.262 170.948 151.129 168.469 150.558L168.184 138.876L175.501 138.585L174.869 149.645Z" fill="#FFA8A7"/>
<path d="M192.675 80.4948C192.871 85.5508 192.201 115.447 192.201 115.447C192.385 116.898 193.887 119.428 194.198 124.663C194.655 132.267 193.106 148.48 193.106 148.48C193.106 148.48 189.97 150.118 186.591 148.864C186.591 148.864 183.152 125.397 181.897 117.896C180.814 111.368 179.423 93.858 179.423 93.858L176.722 116.301C177.217 118.957 177.422 121.66 177.332 124.36C177.221 127.851 175.233 144.798 175.233 144.798C172.965 145.54 170.528 145.598 168.227 144.964C168.227 144.964 166.597 118.664 166.409 115.477C166.196 111.842 166.341 79.7524 166.341 79.7524L192.675 80.4948Z" fill="#45FEC9"/>
<path opacity="0.2" d="M179.43 93.8668C179.43 93.8668 174.647 92.51 171.388 89.6001C171.388 89.6001 172.915 92.207 177.242 94.5196L176.994 114.108L179.43 93.8668Z" fill="#002116"/>
<path d="M181.334 165.491C181.159 165.67 181.261 166.852 181.475 167.159C181.688 167.467 182.994 168.508 185.259 168.584C187.423 168.653 189.334 168.286 190.567 167.432C191.8 166.579 192.38 165.67 192.453 164.446C192.525 163.221 192.342 162.031 192.88 161.062C193.387 160.171 194.211 159.151 194.377 158.669C194.748 157.623 194.296 156.168 194.296 156.168L181.334 165.491Z" fill="#082018"/>
<path d="M186.795 154.539C186.797 155.005 186.731 155.469 186.598 155.917C186.135 157.372 185.439 158.742 184.538 159.974C183.915 160.772 183.13 161.442 182.468 162.214C181.761 162.947 181.327 163.9 181.24 164.915C181.214 166.622 183.074 167.112 184.495 167.309C186.035 167.512 187.601 167.366 189.077 166.882C189.855 166.648 190.548 166.194 191.073 165.574C191.599 164.955 191.934 164.197 192.038 163.392C192.098 162.918 192.038 162.44 192.09 161.967C192.234 160.879 192.646 159.844 193.289 158.955C193.66 158.44 193.978 157.888 194.236 157.308C194.633 156.241 194.236 155.076 193.912 154.048C193.634 153.156 193.318 152.145 193.007 152.243C193.007 152.717 193.007 152.759 192.704 153.096C192.277 153.523 192.299 154.116 191.851 154.487C191.98 154.094 192.069 153.688 192.115 153.276C192.136 153.108 192.095 152.938 192 152.798C191.846 152.673 191.665 152.585 191.471 152.542C190.796 152.342 190.103 152.212 189.402 152.153C188.734 152.066 188.057 152.087 187.396 152.217C187.201 152.263 187.027 152.372 186.901 152.529C186.792 152.704 186.737 152.907 186.744 153.113C186.744 153.391 186.79 154.086 186.795 154.539Z" fill="#4C6359"/>
<path d="M185.174 159.031C185.788 158.536 187.196 158.472 187.973 158.528C188.76 158.564 189.524 158.798 190.196 159.211C190.295 159.277 190.414 159.305 190.532 159.291C190.65 159.277 190.759 159.221 190.84 159.134V159.134C190.887 159.084 190.923 159.025 190.945 158.96C190.967 158.895 190.974 158.826 190.967 158.758C190.96 158.69 190.938 158.624 190.902 158.565C190.867 158.506 190.82 158.456 190.763 158.417C190.022 157.914 189.154 157.631 188.259 157.598C186.356 157.542 185.814 157.888 185.814 157.888C185.814 157.888 184.965 158.477 185.174 159.031Z" fill="#EFF2EE"/>
<path d="M183.791 160.824C184.563 160.324 186.121 160.329 186.893 160.397C187.667 160.446 188.414 160.698 189.06 161.127C189.159 161.192 189.277 161.221 189.395 161.207C189.512 161.192 189.62 161.137 189.7 161.05C189.748 161.001 189.785 160.941 189.808 160.877C189.83 160.812 189.839 160.743 189.832 160.674C189.825 160.606 189.803 160.54 189.768 160.481C189.732 160.422 189.685 160.371 189.628 160.333C188.874 159.804 187.987 159.497 187.068 159.445C185.161 159.386 184.683 159.791 184.683 159.791C184.466 159.885 184.273 160.027 184.119 160.205C183.964 160.384 183.852 160.595 183.791 160.824V160.824Z" fill="#EFF2EE"/>
<path d="M188.941 155.755C188.136 155.645 187.316 155.745 186.56 156.045C186.236 156.245 186.036 156.783 186.253 156.898C186.914 156.601 187.638 156.472 188.361 156.523C189.075 156.565 189.776 156.729 190.434 157.009C190.601 157.073 190.797 157.167 190.968 157.252C191.022 157.28 191.082 157.297 191.143 157.301C191.205 157.305 191.266 157.297 191.324 157.276C191.382 157.256 191.435 157.224 191.48 157.183C191.525 157.141 191.561 157.091 191.586 157.035V157.035C191.627 156.938 191.63 156.829 191.595 156.73C191.561 156.631 191.491 156.548 191.399 156.497C190.642 156.076 189.804 155.823 188.941 155.755V155.755Z" fill="#EFF2EE"/>
<path d="M155.96 156.932C155.766 157.42 155.766 157.963 155.96 158.451C156.148 158.908 158.409 160.324 161.549 160.264C163.884 160.208 166.162 159.527 168.145 158.293C169.378 157.559 170.629 157.47 172.182 157.44C173.735 157.41 175.808 156.749 176.184 156.04C176.559 155.332 176.226 154.065 176.226 154.065L155.96 156.932Z" fill="#082018"/>
<path d="M169.059 147.759L168.815 147.695C168.677 147.653 168.532 147.64 168.389 147.656C168.235 147.693 168.096 147.777 167.992 147.895C167.669 148.274 167.383 148.682 167.139 149.116C166.435 150.152 165.005 150.976 163.469 151.714C162.42 152.213 161.4 152.593 160.32 153.015C159.241 153.438 157.76 153.677 156.907 154.206C155.627 154.978 155.384 157.047 156.741 157.935C157.918 158.703 161.058 159.62 164.421 158.835C166.26 158.408 168.367 156.565 170.757 156.493C172.28 156.446 175.164 156.156 176.192 155.05C176.581 154.56 176.192 152.917 175.847 151.501C175.488 149.956 175.651 147.661 174.959 147.661L174.917 148.433C174.853 148.663 174.311 148.889 174.14 149.069L173.526 149.717C173.274 150.017 172.967 150.267 172.621 150.451C172.011 150.724 171.299 150.562 170.646 150.391C170.62 150.391 170.974 149.205 171.013 149.09C171.051 149 171.063 148.901 171.047 148.804C171.014 148.71 170.949 148.629 170.863 148.578C170.325 148.183 169.71 147.904 169.059 147.759V147.759Z" fill="#4C6359"/>
<path d="M164.929 150.955C165.048 150.752 165.216 150.581 165.418 150.46C165.62 150.339 165.85 150.27 166.085 150.259C166.78 150.165 167.971 150.729 168.7 151.39C168.769 151.452 168.822 151.53 168.854 151.617C168.885 151.704 168.895 151.797 168.883 151.889C168.87 151.981 168.835 152.068 168.781 152.143C168.727 152.218 168.655 152.279 168.572 152.32V152.32C168.468 152.372 168.351 152.389 168.236 152.371C168.121 152.353 168.015 152.299 167.932 152.218C167.134 151.422 166.056 150.969 164.929 150.955V150.955Z" fill="#EFF2EE"/>
<path d="M162.735 152.051C162.895 151.847 163.102 151.684 163.338 151.576C163.574 151.468 163.833 151.419 164.092 151.432C164.092 151.432 165.893 151.569 166.955 152.661C167.021 152.721 167.071 152.796 167.101 152.879C167.132 152.963 167.141 153.052 167.13 153.14C167.118 153.228 167.085 153.312 167.034 153.385C166.983 153.457 166.915 153.516 166.836 153.557V153.557C166.735 153.606 166.621 153.623 166.511 153.606C166.4 153.588 166.298 153.537 166.217 153.459C165.78 152.978 165.24 152.601 164.637 152.358C164.034 152.114 163.384 152.009 162.735 152.051V152.051Z" fill="#EFF2EE"/>
<path d="M160.324 153.015C160.505 152.828 160.725 152.681 160.968 152.586C161.211 152.491 161.472 152.45 161.732 152.465C162.752 152.577 163.711 153.009 164.471 153.698C164.537 153.758 164.587 153.833 164.617 153.917C164.648 154.001 164.657 154.091 164.646 154.179C164.634 154.267 164.601 154.352 164.55 154.425C164.499 154.498 164.431 154.557 164.352 154.598V154.598C164.251 154.648 164.137 154.665 164.026 154.647C163.915 154.628 163.813 154.575 163.733 154.496C163.319 154.001 162.795 153.61 162.204 153.353C161.612 153.096 160.968 152.98 160.324 153.015V153.015Z" fill="#EFF2EE"/>
<path d="M182.614 42.8545C184.628 43.0849 187.009 43.2086 188.933 43.4604C191.412 43.7846 193.345 46.3489 193.951 50.3169C194.616 54.686 191.817 67.2129 191.817 67.2129L192.709 81.9841C189.078 84.6593 173.616 86.063 165.91 80.4993C165.91 80.4993 166.089 55.3601 166.691 51.486C167.519 46.174 168.824 42.8758 174.798 42.4961L182.614 42.8545Z" fill="#4C6359"/>
<path d="M196.382 74.8545C195.729 75.9467 195.072 77.039 194.398 78.1185C194.151 78.5195 193.899 78.9164 193.639 79.3089C193.498 79.501 193.333 79.6745 193.148 79.8251C192.824 80.047 192.15 79.9062 191.757 79.919C189.828 79.9844 187.906 80.1267 185.988 80.3457C185.828 80.3407 185.668 80.3709 185.521 80.4343C185.374 80.4977 185.242 80.5927 185.135 80.7126C185.056 80.8778 185.041 81.0661 185.091 81.2421C185.141 81.4181 185.254 81.5697 185.408 81.6683C185.722 81.8569 186.079 81.9626 186.445 81.9756L188.109 82.1718C188.346 82.1798 188.577 82.2537 188.775 82.3851C189.38 82.8758 188.224 83.4646 187.879 83.7035C187.184 84.1864 186.442 84.5981 185.664 84.9323C182.195 86.3915 181.773 87.4497 182.413 88.6529C182.968 89.6982 185.366 93.4998 191.458 90.2273C193.912 88.9089 197.645 84.7446 199.347 82.7307C201.796 79.8251 205.939 73.3441 205.939 73.3441C208.295 70.1099 208.598 68.783 208.653 67.439C208.708 66.095 201.4 55.7569 198.916 52.1259C196.433 48.495 195.251 44.079 188.932 43.4731C188.932 43.4731 186.526 51.1019 190.511 56.0385L199.714 68.8769C199.714 68.8769 197.278 73.3569 196.382 74.8545Z" fill="#FFA8A7"/>
<path d="M203.059 57.0498C201.877 55.3431 200.644 53.5852 199.454 51.8444C194.441 44.5271 194.863 43.1874 187.635 43.085C186.995 44.0663 186.615 48.2903 187.58 52.5314C188.386 56.094 191.42 58.6071 191.42 58.6071L195.038 63.5095C195.038 63.5095 197.252 63.4412 199.906 61.4956C201.439 60.422 202.553 58.8512 203.059 57.0498V57.0498Z" fill="#3F4944"/>
<path d="M187.379 23.6246C187.016 23.0832 186.513 22.6504 185.923 22.3724C185.333 22.0944 184.679 21.9816 184.03 22.0459L183.654 31.2064L183.04 34.5899L183.147 38.3574C183.503 38.3069 183.841 38.167 184.129 37.9507C184.417 37.7343 184.646 37.4485 184.794 37.12C185.357 36.0363 186.927 30.7968 186.927 30.7968C188.335 26.4918 188.036 24.5462 187.379 23.6246Z" fill="#082018"/>
<path d="M183.228 31.2489C183.387 30.6921 183.692 30.1882 184.112 29.7897C184.636 29.2265 186.727 28.6164 187.679 30.3913C188.63 32.1662 187.026 34.5086 185.788 35.2254C184.205 36.147 183.275 34.8926 183.275 34.8926L183.314 43.3278C182.576 45.0345 179.243 46.5534 177.259 46.3145C175.681 46.1139 174.226 44.8723 175.638 43.0633L175.523 40.6569C175.523 40.6569 173.411 41.0835 172.366 40.9769C170.629 40.7977 169.473 39.4878 168.858 37.6446C167.868 34.6836 167.429 32.2771 167.847 26.3379C168.308 19.8313 175.83 19.3918 180.024 21.747C184.218 24.1022 183.228 31.2489 183.228 31.2489Z" fill="#FFA8A7"/>
<path d="M165.453 19.5797C165.261 18.1589 165.751 16.6357 167.241 16.1322C167.787 15.9036 168.387 15.834 168.971 15.9314C169.555 16.0287 170.1 16.2891 170.543 16.6826C170.73 16.1814 171.052 15.7421 171.475 15.4142C171.898 15.0863 172.403 14.8828 172.935 14.8265C173.467 14.7702 174.004 14.8634 174.486 15.0956C174.968 15.3277 175.375 15.6897 175.663 16.1407C176.058 15.54 176.669 15.1139 177.37 14.9503C177.801 14.8539 178.248 14.845 178.683 14.9242C179.119 15.0033 179.534 15.1689 179.904 15.4111C180.51 15.8591 181.222 16.6911 181.043 17.7706C182.242 17.2885 183.492 17.6895 184.384 18.7477C184.915 19.3956 185.215 20.2016 185.237 21.0389C185.268 21.4737 185.206 21.9102 185.054 22.3189C184.883 22.7071 184.533 22.9631 184.431 23.4026C184.282 23.7893 184.205 24.2 184.205 24.6143C184.303 25.3311 184.461 26.0479 184.555 26.7477C184.656 27.4446 184.714 28.1471 184.73 28.8511C184.707 29.0167 184.65 29.1756 184.561 29.3169C184.472 29.4583 184.353 29.5788 184.213 29.6703C183.815 30.0187 183.506 30.4577 183.313 30.9503C183.164 31.2575 183.019 32.017 182.724 32.2303C181.816 32.8661 181.713 30.8095 181.67 30.4127C181.612 29.502 181.612 28.5885 181.67 27.6778C181.212 27.6719 180.76 27.5701 180.343 27.3791C179.927 27.188 179.555 26.9119 179.251 26.5685C178.936 26.1825 178.729 25.7204 178.65 25.2287C178.6 24.947 178.578 24.6613 178.581 24.3754C177.988 25.3567 176.61 25.7578 175.629 25.6554C173.982 25.5061 173.414 24.8021 173.15 24.2858C173.046 24.7947 172.822 25.2715 172.497 25.6767C172.076 26.0721 171.57 26.3642 171.017 26.5301C170.54 26.6573 170.037 26.6523 169.563 26.5155C169.088 26.3787 168.66 26.1153 168.324 25.7535C167.654 26.7135 165.956 26.2869 165.581 26.0181C164.727 25.3994 164.45 24.6613 164.356 23.6074C164.262 22.5535 164.689 21.3503 165.858 20.9365C165.647 20.5103 165.51 20.0516 165.453 19.5797V19.5797Z" fill="#082018"/>
<path d="M175.522 40.6439C175.522 40.6439 179.337 39.6797 180.642 38.8946C181.415 38.4424 182.032 37.7671 182.413 36.9575C182.248 37.7561 181.925 38.5135 181.462 39.1847C180.54 40.4946 175.565 41.6722 175.565 41.6722L175.522 40.6439Z" fill="#F28F8F"/>
<path d="M175.736 30.9676C175.75 31.1292 175.812 31.283 175.913 31.4099C176.014 31.5368 176.15 31.6312 176.305 31.6814C176.459 31.7315 176.624 31.7352 176.781 31.6919C176.937 31.6487 177.077 31.5605 177.184 31.4382C177.291 31.3159 177.359 31.1649 177.381 31.0041C177.402 30.8433 177.376 30.6797 177.305 30.5336C177.235 30.3876 177.123 30.2655 176.983 30.1826C176.844 30.0997 176.683 30.0596 176.521 30.0673C176.298 30.0848 176.091 30.1889 175.945 30.3572C175.798 30.5255 175.723 30.7447 175.736 30.9676Z" fill="#082018"/>
<path d="M174.46 37.1413C174.48 37.3495 174.56 37.5473 174.691 37.7102C174.822 37.8732 174.998 37.994 175.197 38.0577C175.396 38.1214 175.61 38.1252 175.811 38.0686C176.012 38.012 176.193 37.8975 176.329 37.7393C176.466 37.5812 176.553 37.3863 176.58 37.179C176.607 36.9717 176.572 36.761 176.481 36.5732C176.389 36.3854 176.244 36.2287 176.064 36.1226C175.883 36.0165 175.676 35.9657 175.467 35.9765C175.18 35.9994 174.913 36.1345 174.725 36.3525C174.537 36.5704 174.442 36.8538 174.46 37.1413V37.1413Z" fill="#F28F8F"/>
<path d="M176.423 28.1257L178.181 28.979C178.29 28.738 178.303 28.4643 178.216 28.2142C178.13 27.964 177.951 27.7567 177.716 27.635C177.599 27.5792 177.472 27.5477 177.343 27.5423C177.214 27.537 177.085 27.5578 176.964 27.6037C176.843 27.6496 176.733 27.7195 176.64 27.8092C176.547 27.8989 176.473 28.0066 176.423 28.1257V28.1257Z" fill="#082018"/>
<path d="M168.777 28.864L170.275 27.584C170.197 27.4819 170.099 27.3968 169.987 27.334C169.874 27.2712 169.751 27.232 169.623 27.2188C169.495 27.2057 169.366 27.2188 169.243 27.2573C169.12 27.2959 169.007 27.3592 168.91 27.4432C168.71 27.618 168.585 27.8629 168.56 28.1272C168.536 28.3915 168.613 28.6552 168.777 28.864V28.864Z" fill="#082018"/>
<path d="M169.225 30.8012C169.235 30.959 169.292 31.1102 169.388 31.2359C169.484 31.3616 169.615 31.4561 169.764 31.5075C169.914 31.5589 170.075 31.5649 170.228 31.5249C170.381 31.4848 170.519 31.4003 170.624 31.2822C170.729 31.164 170.797 31.0174 170.819 30.8608C170.841 30.7042 170.817 30.5446 170.748 30.402C170.68 30.2593 170.571 30.1402 170.435 30.0594C170.299 29.9785 170.142 29.9397 169.984 29.9478C169.771 29.9621 169.572 30.0595 169.43 30.2191C169.288 30.3787 169.214 30.5878 169.225 30.8012V30.8012Z" fill="#082018"/>
<path d="M173.185 29.8535L173.159 34.901L170.488 34.133L173.185 29.8535Z" fill="#F28F8F"/>
<path d="M166.482 36.915C166.506 36.9095 166.529 36.8992 166.55 36.8845C166.571 36.8698 166.588 36.8512 166.601 36.8297C166.616 36.8086 166.627 36.7846 166.633 36.7593C166.638 36.7339 166.639 36.7077 166.634 36.6822C166.629 36.6567 166.619 36.6324 166.605 36.6108C166.59 36.5892 166.572 36.5708 166.55 36.5566L164.229 35.0121C164.207 34.9977 164.183 34.9877 164.158 34.9827C164.132 34.9777 164.106 34.9778 164.081 34.9829C164.055 34.9881 164.031 34.9982 164.01 35.0127C163.988 35.0273 163.97 35.0459 163.956 35.0675C163.941 35.0889 163.93 35.1131 163.925 35.1386C163.92 35.1641 163.92 35.1904 163.925 35.216C163.93 35.2415 163.94 35.2658 163.955 35.2872C163.97 35.3086 163.989 35.3268 164.011 35.3406L166.328 36.8851C166.35 36.9011 166.375 36.9121 166.401 36.9173C166.428 36.9224 166.455 36.9217 166.482 36.915Z" fill="#EFF2EE"/>
<path d="M166.234 37.9135C166.27 37.9045 166.303 37.8859 166.329 37.8596C166.355 37.8333 166.374 37.8003 166.383 37.7642C166.395 37.7127 166.385 37.6588 166.357 37.6141C166.329 37.5693 166.285 37.5374 166.234 37.5252L163.52 36.898C163.495 36.8917 163.469 36.8904 163.443 36.8943C163.417 36.8981 163.393 36.9071 163.37 36.9206C163.348 36.9341 163.329 36.9519 163.313 36.9729C163.298 36.9939 163.287 37.0178 163.281 37.0431C163.27 37.0946 163.279 37.1485 163.307 37.1932C163.335 37.2379 163.379 37.2698 163.431 37.282L166.144 37.9135C166.174 37.9178 166.204 37.9178 166.234 37.9135V37.9135Z" fill="#EFF2EE"/>
<path d="M163.712 39.7185H163.738L166.353 38.7628C166.403 38.7446 166.443 38.7077 166.465 38.6601C166.487 38.6125 166.489 38.5581 166.471 38.5089C166.453 38.4597 166.416 38.4196 166.368 38.3976C166.321 38.3756 166.266 38.3734 166.217 38.3916L163.601 39.3473C163.577 39.3563 163.554 39.3701 163.535 39.3879C163.516 39.4057 163.501 39.4272 163.49 39.451C163.479 39.4749 163.473 39.5006 163.473 39.5268C163.472 39.5529 163.477 39.5789 163.486 39.6033C163.504 39.6462 163.537 39.6813 163.578 39.7024C163.62 39.7234 163.667 39.7292 163.712 39.7185V39.7185Z" fill="#EFF2EE"/>
<path d="M141.585 60.1853C141.639 60.2936 141.724 60.3837 141.829 60.4444C141.933 60.5051 142.053 60.5339 142.174 60.5271C142.295 60.5203 142.411 60.4782 142.508 60.4061C142.605 60.334 142.679 60.235 142.72 60.1213L144.666 55.3213C144.698 55.2444 144.713 55.1619 144.712 55.0787C144.711 54.9955 144.693 54.9134 144.66 54.8373C144.626 54.7611 144.578 54.6925 144.517 54.6356C144.457 54.5786 144.385 54.5345 144.307 54.5058C144.229 54.4771 144.146 54.4644 144.063 54.4685C143.98 54.4727 143.898 54.4935 143.824 54.5298C143.749 54.5661 143.682 54.6171 143.627 54.6798C143.573 54.7425 143.531 54.8156 143.505 54.8947L141.556 59.6947C141.527 59.7742 141.515 59.8587 141.52 59.9431C141.525 60.0275 141.547 60.1099 141.585 60.1853Z" fill="#EFF2EE"/>
<path d="M138.382 60.1602C138.444 60.286 138.547 60.3869 138.674 60.4464C138.801 60.506 138.944 60.5206 139.081 60.4878C139.217 60.4551 139.338 60.3769 139.424 60.2662C139.511 60.1555 139.557 60.0188 139.555 59.8786L139.491 53.9052C139.478 53.7506 139.407 53.6064 139.293 53.5013C139.179 53.3962 139.03 53.3379 138.874 53.3379C138.719 53.3379 138.57 53.3962 138.455 53.5013C138.341 53.6064 138.271 53.7506 138.258 53.9052L138.318 59.8786C138.316 59.9762 138.338 60.0727 138.382 60.1602V60.1602Z" fill="#EFF2EE"/>
<path d="M132.95 56.8366L132.988 56.9091L135.928 61.1758C136.019 61.3108 136.16 61.4045 136.32 61.4365C136.48 61.4684 136.645 61.4361 136.782 61.3464C136.914 61.2533 137.006 61.1124 137.037 60.9533C137.068 60.7942 137.036 60.6293 136.948 60.4931L134.008 56.2264C133.923 56.0941 133.789 55.9997 133.636 55.9628C133.483 55.926 133.321 55.9494 133.185 56.0283C133.048 56.1073 132.947 56.2356 132.903 56.3868C132.858 56.5381 132.874 56.7006 132.946 56.8408L132.95 56.8366Z" fill="#EFF2EE"/>
</svg>
