<svg width="231" height="214" viewBox="0 0 231 214" fill="none" xmlns="http://www.w3.org/2000/svg">
<path d="M54.4903 27.9711C54.4903 27.9711 28.8225 53.4612 21.2182 82.3802C13.6139 111.299 24.6128 141.656 50.4804 158.458C76.3479 175.26 110.861 160.67 145.186 165.471C179.511 170.271 211.342 156.589 215.589 121.337C219.836 86.0857 195.005 81.5175 180.034 47.2283C165.063 12.9392 116.291 -28.5396 54.4903 27.9711Z" fill="#CEE8DB"/>
<path opacity="0.7" d="M54.4903 27.9711C54.4903 27.9711 28.8225 53.4612 21.2182 82.3802C13.6139 111.299 24.6128 141.656 50.4804 158.458C76.3479 175.26 110.861 160.67 145.186 165.471C179.511 170.271 211.342 156.589 215.589 121.337C219.836 86.0857 195.005 81.5175 180.034 47.2283C165.063 12.9392 116.291 -28.5396 54.4903 27.9711Z" fill="#45FEC9"/>
<path d="M220.225 95.6258C220.225 95.6258 220.225 93.303 217.052 90.0455C213.878 86.788 211.833 84.9353 211.833 84.9353C211.833 84.9353 210.246 90.2778 213.193 93.5352C215.358 95.8216 217.705 97.9194 220.209 99.8068L220.225 95.6258Z" fill="#CEE8DB"/>
<path d="M215.616 110.138C215.616 110.138 215.616 107.815 212.442 104.563C209.269 101.311 207.229 99.4474 207.229 99.4474C207.229 99.4474 205.61 104.795 208.589 108.047C210.753 110.335 213.1 112.432 215.605 114.319L215.616 110.138Z" fill="#CEE8DB"/>
<path d="M220.025 99.5857C220.025 99.5857 220.263 97.2739 223.76 94.3815C227.257 91.489 229.47 89.863 229.47 89.863C229.47 89.863 230.501 95.3493 227.23 98.2639C224.838 100.303 222.283 102.135 219.594 103.739L220.025 99.5857Z" fill="#CEE8DB"/>
<path d="M214.461 116.725C214.461 116.725 214.936 114.452 218.703 111.952C222.47 109.452 224.85 108.08 224.85 108.08C224.85 108.08 225.309 113.65 221.763 116.199C219.173 117.969 216.443 119.516 213.603 120.823L214.461 116.725Z" fill="#CEE8DB"/>
<path d="M215.508 135.412C215.508 135.412 215.508 133.084 218.681 129.832C221.855 126.58 223.895 124.722 223.895 124.722C223.895 124.722 225.482 130.064 222.535 133.316C220.372 135.606 218.025 137.706 215.519 139.593L215.508 135.412Z" fill="#CEE8DB"/>
<path d="M215.454 139.969C215.454 139.969 215.773 137.669 213.085 133.985C210.397 130.302 208.632 128.167 208.632 128.167C208.632 128.167 206.317 133.228 208.784 136.878C210.612 139.459 212.648 141.879 214.871 144.112L215.454 139.969Z" fill="#CEE8DB"/>
<path d="M212.324 153.514C212.324 153.514 212.324 151.191 215.497 147.939C218.671 144.687 220.711 142.829 220.711 142.829C220.711 142.829 222.303 148.171 219.351 151.423C217.188 153.713 214.841 155.813 212.335 157.7L212.324 153.514Z" fill="#CEE8DB"/>
<path d="M214.429 165.747C214.429 165.747 213.851 163.496 216.118 159.525C218.385 155.554 219.896 153.226 219.896 153.226C219.896 153.226 222.751 157.982 220.705 161.898C219.171 164.673 217.415 167.313 215.454 169.79L214.429 165.747Z" fill="#CEE8DB"/>
<path d="M220.511 95.0284C220.352 97.4489 220.062 99.8584 219.642 102.246C218.39 108.882 215.249 113.174 213.997 119.18C212.745 125.186 216.345 132.912 215.379 140.622C214.413 148.331 211.487 152.618 212.324 157.767C213.16 162.915 217.651 177.344 217.651 177.344" stroke="#002116" stroke-width="0.75" stroke-linecap="round" stroke-linejoin="round"/>
<path d="M219.993 101.129L223.415 98.4353" stroke="#002116" stroke-width="0.75" stroke-linecap="round" stroke-linejoin="round"/>
<path d="M220.155 98.0315L218.719 95.4211" stroke="#002116" stroke-width="0.75" stroke-linecap="round" stroke-linejoin="round"/>
<path d="M214.186 118.904C214.186 118.904 217.052 116.691 219.993 114.479" stroke="#002116" stroke-width="0.75" stroke-linecap="round" stroke-linejoin="round"/>
<path d="M215.465 113.91C214.069 111.225 212.415 108.691 210.527 106.344" stroke="#002116" stroke-width="0.75" stroke-linecap="round" stroke-linejoin="round"/>
<path d="M215.616 138.714C217.252 135.626 219.317 132.798 221.747 130.319" stroke="#002116" stroke-width="0.75" stroke-linecap="round" stroke-linejoin="round"/>
<path d="M215.06 141.977C214.192 139.88 213.154 137.862 211.957 135.943C210.289 133.416 210.046 133.089 210.046 133.089" stroke="#002116" stroke-width="0.75" stroke-linecap="round" stroke-linejoin="round"/>
<path d="M212.324 157.761C213.048 155.913 213.91 154.125 214.903 152.413C215.895 150.827 217.012 149.326 218.244 147.928" stroke="#002116" stroke-width="0.75" stroke-linecap="round" stroke-linejoin="round"/>
<path d="M215.476 169.79C215.31 168.028 215.607 166.252 216.334 164.646C217.527 162.279 218.881 159.182 219.437 157.96" stroke="#002116" stroke-width="0.75" stroke-linecap="round" stroke-linejoin="round"/>
<path d="M199.436 126.669C199.436 126.669 199.188 125.214 200.834 122.797C202.48 120.38 203.565 119.009 203.565 119.009C203.565 119.009 205.124 122.189 203.624 124.539C202.505 126.216 201.253 127.794 199.878 129.257L199.436 126.669Z" fill="#CEE8DB"/>
<path d="M203.861 135.263C203.861 135.263 203.619 133.808 205.265 131.392C206.911 128.975 207.99 127.603 207.99 127.603C207.99 127.603 209.555 130.778 208.049 133.134C206.932 134.809 205.679 136.385 204.304 137.846L203.861 135.263Z" fill="#CEE8DB"/>
<path d="M199.981 129.13C199.981 129.13 199.587 127.708 197.088 126.281C194.589 124.855 193.024 124.069 193.024 124.069C193.024 124.069 192.965 127.625 195.323 129.085C197.04 130.101 198.836 130.967 200.693 131.674L199.981 129.13Z" fill="#CEE8DB"/>
<path d="M205.286 139.256C205.286 139.256 204.747 137.884 202.118 136.74C199.49 135.595 197.855 134.992 197.855 134.992C197.855 134.992 198.157 138.531 200.65 139.737C202.462 140.559 204.338 141.225 206.258 141.728L205.286 139.256Z" fill="#CEE8DB"/>
<path d="M206.609 151.091C206.609 151.091 206.366 149.637 204.029 147.95C201.692 146.263 200.213 145.323 200.213 145.323C200.213 145.323 199.787 148.851 201.978 150.566C203.582 151.758 205.278 152.812 207.051 153.718L206.609 151.091Z" fill="#CEE8DB"/>
<path d="M207.127 153.945C207.127 153.945 206.679 152.54 207.979 149.93C209.28 147.319 210.138 145.787 210.138 145.787C210.138 145.787 212.124 148.702 210.964 151.263C210.092 153.085 209.072 154.83 207.915 156.478L207.127 153.945Z" fill="#CEE8DB"/>
<path d="M211.11 165.681C211.11 165.681 211.277 164.21 213.511 162.362C215.746 160.515 217.17 159.52 217.17 159.52C217.17 159.52 217.796 163.015 215.702 164.851C214.17 166.139 212.534 167.291 210.813 168.297L211.11 165.681Z" fill="#CEE8DB"/>
<path d="M210.521 162.075C210.521 162.075 210.273 160.62 207.941 158.933C205.61 157.247 204.126 156.306 204.126 156.306C204.126 156.306 203.699 159.835 205.891 161.544C207.492 162.74 209.189 163.796 210.964 164.702L210.521 162.075Z" fill="#CEE8DB"/>
<path d="M210.489 170C210.489 170 210.613 168.523 208.767 166.283C206.922 164.044 205.729 162.755 205.729 162.755C205.729 162.755 204.444 166.073 206.144 168.286C207.398 169.856 208.78 171.316 210.273 172.649L210.489 170Z" fill="#CEE8DB"/>
<path d="M199.193 126.331C199.551 127.829 199.987 129.306 200.499 130.756C201.994 134.782 204.412 137.121 205.837 140.749C207.262 144.377 205.837 149.598 207.24 154.349C208.643 159.099 210.953 161.433 210.975 164.752C210.996 168.07 209.717 177.295 209.717 177.295" stroke="#002116" stroke-width="0.75" stroke-linecap="round" stroke-linejoin="round"/>
<path d="M200.165 130.097L197.73 128.787" stroke="#002116" stroke-width="0.75" stroke-linecap="round" stroke-linejoin="round"/>
<path d="M199.733 128.167L200.359 126.375" stroke="#002116" stroke-width="0.75" stroke-linecap="round" stroke-linejoin="round"/>
<path d="M205.691 140.594C205.691 140.594 203.656 139.532 201.579 138.482" stroke="#002116" stroke-width="0.75" stroke-linecap="round" stroke-linejoin="round"/>
<path d="M204.288 137.425C204.935 135.657 205.726 133.948 206.652 132.315" stroke="#002116" stroke-width="0.75" stroke-linecap="round" stroke-linejoin="round"/>
<path d="M206.873 153.176C205.519 151.422 203.925 149.878 202.14 148.591" stroke="#002116" stroke-width="0.75" stroke-linecap="round" stroke-linejoin="round"/>
<path d="M207.585 155.173C207.907 153.761 208.344 152.379 208.891 151.041C209.668 149.272 209.787 149.045 209.787 149.045" stroke="#002116" stroke-width="0.75" stroke-linecap="round" stroke-linejoin="round"/>
<path d="M210.861 167.274C211.653 166.275 212.529 165.349 213.479 164.508C214.082 164.05 214.649 163.543 215.174 162.993" stroke="#002116" stroke-width="0.75" stroke-linecap="round" stroke-linejoin="round"/>
<path d="M210.975 164.752C210.324 163.674 209.593 162.65 208.789 161.688C207.999 160.804 207.14 159.989 206.22 159.249" stroke="#002116" stroke-width="0.75" stroke-linecap="round" stroke-linejoin="round"/>
<path d="M210.273 172.649C210.191 171.526 209.818 170.446 209.194 169.519C208.195 168.169 207.035 166.377 206.538 165.647" stroke="#002116" stroke-width="0.75" stroke-linecap="round" stroke-linejoin="round"/>
<path d="M205.707 176.1H221.191V184.302C221.191 184.667 221.05 185.017 220.797 185.276C220.545 185.534 220.204 185.679 219.847 185.679H207.051C206.695 185.679 206.353 185.534 206.101 185.276C205.849 185.017 205.707 184.667 205.707 184.302V176.1Z" fill="#002116" stroke="#002116" stroke-linecap="round" stroke-linejoin="round"/>
<path d="M23.5063 106.593C23.5063 106.593 23.5063 104.613 20.8079 101.848C18.1094 99.0823 16.3608 97.5006 16.3608 97.5006C16.3608 97.5006 15.0115 102.047 17.5157 104.812C19.3613 106.758 21.3614 108.543 23.4955 110.149L23.5063 106.593Z" fill="#CEE8DB"/>
<path d="M19.5991 118.931C19.5991 118.931 19.5991 116.957 16.9006 114.192C14.2022 111.426 12.4535 109.823 12.4535 109.823C12.4535 109.823 11.1043 114.363 13.6085 117.134C15.4559 119.087 17.4598 120.878 19.5991 122.487V118.931Z" fill="#CEE8DB"/>
<path d="M23.3391 109.955C23.3391 109.955 23.5388 107.992 26.5125 105.531C29.4862 103.07 31.3697 101.693 31.3697 101.693C31.3697 101.693 32.244 106.355 29.4646 108.838C27.4355 110.572 25.2692 112.129 22.9883 113.495L23.3391 109.955Z" fill="#CEE8DB"/>
<path d="M18.606 124.534C18.606 124.534 19.0108 122.598 22.2112 120.474C25.4116 118.351 27.4408 117.156 27.4408 117.156C27.4408 117.156 27.8294 121.885 24.8125 124.053C22.6118 125.561 20.292 126.878 17.8774 127.99L18.606 124.534Z" fill="#CEE8DB"/>
<path d="M19.4964 140.423C19.4964 140.423 19.4964 138.448 22.1949 135.678C24.8934 132.907 26.615 131.331 26.615 131.331C26.615 131.331 27.9642 135.877 25.4546 138.642C23.6133 140.59 21.6148 142.375 19.4802 143.979L19.4964 140.423Z" fill="#CEE8DB"/>
<path d="M19.4479 144.3C19.4479 144.3 19.7232 142.347 17.4349 139.212C15.1466 136.076 13.657 134.262 13.657 134.262C13.657 134.262 11.6925 138.565 13.7865 141.673C15.3431 143.867 17.0761 145.924 18.9676 147.823L19.4479 144.3Z" fill="#CEE8DB"/>
<path d="M16.7871 155.798C16.7871 155.798 16.7871 153.823 19.4856 151.053C22.1841 148.282 23.9165 146.706 23.9165 146.706C23.9165 146.706 25.2657 151.252 22.7615 154.017C20.916 155.963 18.9159 157.748 16.7817 159.354L16.7871 155.798Z" fill="#CEE8DB"/>
<path d="M18.5897 166.234C18.5897 166.234 18.0986 164.326 20.0307 160.947C21.9628 157.567 23.2689 155.588 23.2689 155.588C23.2689 155.588 25.6759 159.597 23.9165 162.949C22.6129 165.308 21.12 167.552 19.4532 169.657L18.5897 166.234Z" fill="#CEE8DB"/>
<path d="M23.7494 106.084C23.615 108.143 23.3681 110.192 23.01 112.223C21.9306 117.869 19.2753 121.514 18.2121 126.602C17.1489 131.69 20.209 138.283 19.3887 144.853C18.5683 151.423 16.0749 155.051 16.7873 159.426C17.4997 163.8 21.3208 176.078 21.3208 176.078" stroke="#002116" stroke-width="0.75" stroke-linecap="round" stroke-linejoin="round"/>
<path d="M23.312 111.272L26.221 108.982" stroke="#002116" stroke-width="0.75" stroke-linecap="round" stroke-linejoin="round"/>
<path d="M23.447 108.633L22.2273 106.416" stroke="#002116" stroke-width="0.75" stroke-linecap="round" stroke-linejoin="round"/>
<path d="M18.374 126.414C18.374 126.414 20.808 124.539 23.3122 122.67" stroke="#002116" stroke-width="0.75" stroke-linecap="round" stroke-linejoin="round"/>
<path d="M19.4587 122.139C18.2786 119.858 16.8793 117.703 15.2815 115.707" stroke="#002116" stroke-width="0.75" stroke-linecap="round" stroke-linejoin="round"/>
<path d="M19.5991 143.232C20.9906 140.606 22.7467 138.201 24.8126 136.093" stroke="#002116" stroke-width="0.75" stroke-linecap="round" stroke-linejoin="round"/>
<path d="M19.1134 146.009C18.376 144.226 17.4951 142.509 16.4797 140.876C15.0549 138.725 14.8606 138.448 14.8606 138.448" stroke="#002116" stroke-width="0.75" stroke-linecap="round" stroke-linejoin="round"/>
<path d="M16.7874 159.426C17.4051 157.856 18.1376 156.336 18.9785 154.88C19.8234 153.532 20.7746 152.257 21.8227 151.069" stroke="#002116" stroke-width="0.75" stroke-linecap="round" stroke-linejoin="round"/>
<path d="M19.4694 169.657C19.3281 168.158 19.5797 166.648 20.198 165.282C21.2126 163.269 22.3568 160.637 22.8371 159.597" stroke="#002116" stroke-width="0.75" stroke-linecap="round" stroke-linejoin="round"/>
<path d="M5.82599 132.99C5.82599 132.99 5.6209 131.751 7.01871 129.716C8.41652 127.681 9.33939 126.497 9.33939 126.497C9.33939 126.497 10.667 129.196 9.38797 131.209C8.43767 132.634 7.37255 133.976 6.20377 135.219L5.82599 132.99Z" fill="#CEE8DB"/>
<path d="M9.593 140.296C9.593 140.296 9.38252 139.057 10.7857 137.022C12.1889 134.986 13.1064 133.797 13.1064 133.797C13.1064 133.797 14.4341 136.502 13.155 138.515C12.2047 139.94 11.1396 141.281 9.97078 142.525L9.593 140.296Z" fill="#CEE8DB"/>
<path d="M6.29016 135.08C6.29016 135.08 5.95555 133.875 3.83456 132.663C1.71356 131.452 0.380512 130.794 0.380512 130.794C0.380512 130.794 0.326543 133.814 2.32881 135.064C3.78807 135.93 5.31531 136.67 6.89462 137.276L6.29016 135.08Z" fill="#CEE8DB"/>
<path d="M10.802 143.697C10.802 143.697 10.3432 142.53 8.1035 141.551C5.86377 140.572 4.48755 140.063 4.48755 140.063C4.48755 140.063 4.7466 143.077 6.8676 144.101C8.40735 144.801 10.0014 145.369 11.6331 145.798L10.802 143.697Z" fill="#CEE8DB"/>
<path d="M11.93 153.757C11.93 153.757 11.7196 152.518 9.73348 151.086C7.7474 149.653 6.49531 148.873 6.49531 148.873C6.49531 148.873 6.10673 151.854 7.99027 153.309C9.35462 154.324 10.7988 155.221 12.3078 155.991L11.93 153.757Z" fill="#CEE8DB"/>
<path d="M12.367 156.185C12.367 156.185 11.9892 154.99 13.0902 152.772C14.1912 150.555 14.9414 149.25 14.9414 149.25C14.9414 149.25 16.6306 151.727 15.643 153.906C14.9019 155.453 14.0353 156.933 13.0524 158.331L12.367 156.185Z" fill="#CEE8DB"/>
<path d="M15.7563 166.184C15.7563 166.184 15.8967 164.934 17.8018 163.385C19.7069 161.837 20.9104 160.969 20.9104 160.969C20.9104 160.969 21.4501 163.939 19.6637 165.504C18.3592 166.602 16.9673 167.586 15.5027 168.446L15.7563 166.184Z" fill="#CEE8DB"/>
<path d="M15.2816 163.098C15.2816 163.098 15.0711 161.859 13.085 160.427C11.0989 158.994 9.84684 158.214 9.84684 158.214C9.84684 158.214 9.47985 161.218 11.3472 162.672C12.7109 163.688 14.1552 164.585 15.6647 165.354L15.2816 163.098Z" fill="#CEE8DB"/>
<path d="M15.2275 169.834C15.2275 169.834 15.3301 168.584 13.765 166.676C12.1999 164.768 11.1798 163.679 11.1798 163.679C11.1798 163.679 10.1004 166.483 11.5306 168.38C12.599 169.715 13.7742 170.956 15.0441 172.09L15.2275 169.834Z" fill="#CEE8DB"/>
<path d="M5.62085 132.702C5.92614 133.977 6.29726 135.234 6.73262 136.469C8.0009 139.892 10.0625 141.877 11.2714 144.963C12.4804 148.049 11.2714 152.507 12.4642 156.528C13.6569 160.548 15.6214 162.556 15.6376 165.377C15.6538 168.197 14.5582 176.045 14.5582 176.045" stroke="#002116" stroke-width="0.75" stroke-linecap="round" stroke-linejoin="round"/>
<path d="M6.44667 135.904L4.37964 134.793" stroke="#002116" stroke-width="0.75" stroke-linecap="round" stroke-linejoin="round"/>
<path d="M6.08496 134.267L6.61386 132.741" stroke="#002116" stroke-width="0.75" stroke-linecap="round" stroke-linejoin="round"/>
<path d="M11.1474 144.831C11.1474 144.831 9.42034 143.929 7.65015 143.033" stroke="#002116" stroke-width="0.75" stroke-linecap="round" stroke-linejoin="round"/>
<path d="M9.95459 142.137C10.5074 140.634 11.1807 139.18 11.9676 137.79" stroke="#002116" stroke-width="0.75" stroke-linecap="round" stroke-linejoin="round"/>
<path d="M12.1675 155.532C11.0144 154.05 9.65832 152.746 8.14136 151.661" stroke="#002116" stroke-width="0.75" stroke-linecap="round" stroke-linejoin="round"/>
<path d="M12.7556 157.219C13.0309 156.019 13.4028 154.844 13.8674 153.707C14.5312 152.203 14.6284 152.004 14.6284 152.004" stroke="#002116" stroke-width="0.75" stroke-linecap="round" stroke-linejoin="round"/>
<path d="M15.5459 167.517C16.2171 166.664 16.9613 165.873 17.7694 165.155C18.2827 164.766 18.7646 164.335 19.2104 163.867" stroke="#002116" stroke-width="0.75" stroke-linecap="round" stroke-linejoin="round"/>
<path d="M15.6376 165.376C15.0853 164.46 14.4646 163.59 13.7811 162.772C13.1183 162.019 12.3963 161.324 11.6223 160.692" stroke="#002116" stroke-width="0.75" stroke-linecap="round" stroke-linejoin="round"/>
<path d="M15.044 172.09C14.9713 171.134 14.6529 170.214 14.1212 169.425C13.2738 168.28 12.27 166.754 11.8652 166.156" stroke="#002116" stroke-width="0.75" stroke-linecap="round" stroke-linejoin="round"/>
<path d="M10.3379 176.1H25.8217V184.302C25.8217 184.485 25.7863 184.665 25.7174 184.834C25.6485 185.003 25.5476 185.155 25.4205 185.283C25.2934 185.412 25.1427 185.513 24.9772 185.581C24.8116 185.648 24.6346 185.682 24.4563 185.679H11.6817C11.3253 185.679 10.9835 185.534 10.7315 185.276C10.4795 185.017 10.3379 184.667 10.3379 184.302V176.1Z" fill="#002116" stroke="#002116" stroke-linecap="round" stroke-linejoin="round"/>
<path d="M157.836 73.3213C155.947 75.7313 154.665 78.5801 154.102 81.617C153.109 86.777 150.664 96.472 150.971 99.8345C151.279 103.197 152.051 105.072 155.014 105.619C157.977 106.167 159.666 103.507 160.281 101.239C160.671 99.7471 160.976 98.2328 161.193 96.7043L161.803 84.3823C161.803 84.3823 160.724 76.9769 160.211 75.4173C159.698 73.8577 157.836 73.3213 157.836 73.3213Z" fill="#CEE8DB" stroke="#002116" stroke-linecap="round" stroke-linejoin="round"/>
<path d="M197.525 70.8547C197.525 70.8547 198.605 70.6113 199.63 74.4495C200.656 78.2877 201.892 83.7961 203.915 90.5875C205.939 97.379 206.333 99.6188 206.177 101.134C206.02 102.65 204.855 104.331 200.78 104.331C196.705 104.331 194.843 102.733 193.764 99.1377C192.684 95.5428 192.841 84.4376 192.765 82.9997C192.69 81.5617 196.273 70.1357 197.525 70.8547Z" fill="#CEE8DB" stroke="#002116" stroke-linecap="round" stroke-linejoin="round"/>
<path d="M169.688 190.148C169.688 190.148 167.038 193.024 165.478 194.865C163.919 196.707 163.374 197.819 165.943 198.936C168.512 200.053 172.494 198.383 173.666 196.541C174.837 194.699 177.33 192.625 177.33 192.625C177.33 192.625 178.652 191.11 176.936 188.953C175.22 186.796 170.465 189.268 169.688 190.148Z" fill="white" stroke="#002116" stroke-linecap="round" stroke-linejoin="round"/>
<path d="M185.593 192.548C185.593 192.548 188.243 192.946 189.646 194.207C191.049 195.468 195.966 198.283 199.236 196.923C202.507 195.562 200.407 193.328 198.616 191.729C197.609 190.815 196.511 190.012 195.34 189.335C195.34 189.335 190.115 188.937 187.784 190.131C185.452 191.326 185.593 192.548 185.593 192.548Z" fill="white" stroke="#002116" stroke-linecap="round" stroke-linejoin="round"/>
<path d="M166.644 155.388C166.644 155.388 167.896 164.978 167.27 167.854C166.644 170.73 164.852 172.411 166.191 175.21C167.181 177.373 167.907 179.655 168.35 182.001C168.506 182.958 167.648 183.196 168.35 184.213C168.861 184.869 169.281 185.595 169.596 186.37C169.596 186.614 168.663 187.969 168.663 188.289C168.663 188.61 169.132 190.607 169.132 190.607C169.132 190.607 171.625 190.054 173.417 190.767C174.715 191.34 175.945 192.064 177.082 192.924C177.082 192.924 178.701 192.282 179.268 191.326C179.573 190.824 179.758 190.255 179.807 189.666C179.883 189.346 180.665 187.664 180.59 186.387C180.514 185.109 179.651 182.394 179.651 180.796C179.651 179.197 180.822 177.439 180.822 174.883C180.822 172.328 179.651 155.947 179.651 155.947L180.73 155.543C180.73 155.543 182.446 165.294 182.446 169.851C182.446 174.408 181.124 180.077 181.982 181.194C182.84 182.311 183.85 183.273 183.85 183.511C183.85 183.749 182.835 185.508 183.072 186.387C183.443 187.542 183.754 188.716 184.006 189.904C184.006 190.385 184.864 192.222 185.566 192.542C186.267 192.863 186.645 192.139 190.79 191.265C194.935 190.391 197.266 190.623 196.872 189.346C196.478 188.068 196.095 186.387 195.626 186.066C195.156 185.745 195.782 185.513 195.626 184.313C195.469 183.113 194.611 181.835 193.834 179.916C193.057 177.997 194.142 175.923 194.455 173.921C194.768 171.919 194.298 168.944 193.521 165.692C192.744 162.44 193.44 154.426 193.44 154.426L193.834 151.312C193.834 151.312 181.901 152.418 174.572 152.347L166.698 152.269C166.698 152.269 166.18 152.833 166.644 155.388Z" fill="#002116" stroke="#002116" stroke-linecap="round" stroke-linejoin="round"/>
<path d="M196.899 121.99C196.899 121.99 197.979 136.535 199.393 144.112C200.206 148.388 200.722 152.718 200.936 157.07H195.264C195.027 157.07 195.653 130.142 195.804 127.758C196.009 125.807 196.376 123.877 196.899 121.99Z" fill="#CEE8DB" stroke="#002116" stroke-linecap="round" stroke-linejoin="round"/>
<path d="M173.412 62.8133C173.412 62.8133 166.784 67.3649 163.357 68.9632C159.93 70.5615 158.052 72.641 157.82 73.3876C157.588 74.1342 161.56 85.61 161.56 85.61C161.56 85.61 161.328 123.566 161.328 129.959C161.328 136.352 159.38 155.604 159.612 155.604C159.844 155.604 166.088 159.763 174.659 160.001C183.229 160.239 185.992 158.961 188.691 158.961C191.389 158.961 196.786 158.961 196.878 158.165C196.97 157.368 197.034 139.704 197.11 131.474C197.185 123.245 197.266 117.41 197.11 116.055C196.953 114.7 194.773 85.4496 194.773 85.4496C194.773 85.4496 196.392 80.5773 197.347 76.6617C198.303 72.7461 198.281 72.2649 197.11 70.5117C195.939 68.7586 187.153 63.9802 185.593 63.3663C183.676 62.6789 181.681 62.2494 179.656 62.0888C178.188 61.9837 173.412 62.8133 173.412 62.8133Z" fill="#CEE8DB" stroke="#002116" stroke-linecap="round" stroke-linejoin="round"/>
<path d="M158.77 95.3051C158.77 95.3051 159.785 97.6998 161.031 98.7395C162.278 99.7792 165.165 100.26 165.786 101.859C166.407 103.457 165.786 104.652 165.084 106.571C164.383 108.49 164.777 111.686 162.202 112.101C159.628 112.516 158.851 111.548 156.741 110.022C154.631 108.495 153.314 108.263 152.067 105.946C150.82 103.628 150.448 100.415 151.527 98.6787" fill="#CEE8DB"/>
<path d="M158.77 95.3051C158.77 95.3051 159.785 97.6998 161.031 98.7395C162.278 99.7792 165.165 100.26 165.786 101.859C166.407 103.457 165.786 104.652 165.084 106.571C164.383 108.49 164.777 111.686 162.202 112.101C159.628 112.516 158.851 111.548 156.741 110.022C154.631 108.495 153.314 108.263 152.067 105.946C150.82 103.628 150.448 100.415 151.527 98.6787" stroke="#002116" stroke-linecap="round" stroke-linejoin="round"/>
<path d="M173.121 59.6665L172.872 66.3805C172.872 66.3805 172.252 67.3373 175.992 67.5751C178.396 67.7043 180.806 67.5184 183.164 67.0221L182.544 59.755C182.544 59.755 178.642 61.4141 176.38 60.6343C175.32 60.2255 174.23 59.9019 173.121 59.6665Z" fill="white" stroke="#002116" stroke-linecap="round" stroke-linejoin="round"/>
<path d="M171.636 57.9907C171.636 57.9907 171.097 65.7334 170.703 68.0562C170.309 70.3791 170.39 71.8115 171.242 72.37C172.095 72.9286 177.087 74.9307 179.661 74.7703C182.236 74.6099 186.138 72.2097 186.445 71.4907C186.753 70.7717 184.114 59.495 184.114 59.495L183.72 59.9762C183.72 59.9762 184.422 65.8883 184.19 66.0597C183.957 66.2312 174.912 65.5786 173.272 65.5067C171.631 65.4348 172.106 65.3463 172.106 65.3463L172.025 58.5548L171.636 57.9907Z" fill="white" stroke="#002116" stroke-linecap="round" stroke-linejoin="round"/>
<path d="M171.388 67.2046C171.388 67.2046 179.91 68.4932 185.021 67.4811" stroke="#002116" stroke-width="0.5" stroke-miterlimit="10"/>
<path d="M171.032 69.2288C171.032 69.2288 176.968 71.8004 185.021 69.4997" stroke="#002116" stroke-width="0.5" stroke-miterlimit="10"/>
<path d="M171.658 71.6178C171.658 71.6178 177.308 74.7426 185.021 71.4298" stroke="#002116" stroke-width="0.5" stroke-miterlimit="10"/>
<path d="M185.442 49.8388C185.636 47.3832 185.798 44.8613 185.204 43.6059C184.27 41.6094 181.459 39.2921 177.405 39.4525C173.352 39.6128 169.92 41.2112 170.001 46.3214C170.001 46.3214 170.174 47.8422 170.373 49.706C170.002 50.5199 169.872 51.4277 170.001 52.3164C170.127 53.1692 170.418 53.9873 170.859 54.7222C170.897 55.1978 170.924 55.6071 170.935 55.9113C171.01 58.0681 172.413 60.6232 173.665 61.5026C174.917 62.3819 177.249 63.7424 178.733 63.7424C180.217 63.7424 182.862 62.3045 184.13 60.225C185.112 58.5659 185.209 57.4598 185.209 55.5075H185.285C185.508 54.4822 185.64 53.4381 185.679 52.3883C185.711 51.5314 185.631 50.674 185.442 49.8388Z" fill="white" stroke="#002116" stroke-linecap="round" stroke-linejoin="round"/>
<path d="M170.713 50.3199C170.713 50.3199 170.945 52.3164 171.334 52.2334C171.723 52.1505 172.192 49.2802 172.192 49.2802L170.713 50.3199Z" fill="#002116" stroke="#002116" stroke-linecap="round" stroke-linejoin="round"/>
<path d="M183.958 50.0931C183.958 50.0931 183.958 52.333 184.497 52.6538C185.037 52.9745 185.431 50.7347 185.431 50.7347C184.989 50.4179 184.487 50.1994 183.958 50.0931Z" fill="#002116" stroke="#002116" stroke-linecap="round" stroke-linejoin="round"/>
<path d="M185.204 43.6059C184.27 41.6094 181.459 39.2921 177.406 39.4525C173.352 39.6128 169.92 41.2112 170.001 46.3214C170.001 46.3214 170.174 47.8423 170.373 49.706C170.127 50.2464 169.986 50.8305 169.958 51.426C171.474 50.1817 174.313 48.4008 177.875 48.7216C180.647 49.0453 183.311 50.0077 185.668 51.5366C185.644 50.9648 185.568 50.3964 185.442 49.8388C185.636 47.3832 185.825 44.8779 185.204 43.6059Z" fill="#CEE8DB" stroke="#002116" stroke-linecap="round" stroke-linejoin="round"/>
<path d="M176.861 51.7523L176.391 54.6281C176.391 54.6281 175.533 54.7056 175.851 55.2641C176.17 55.8227 177.8 56.4643 178.582 56.2264C179.365 55.9886 180.142 55.1867 180.061 54.8659C180.037 54.77 179.988 54.6824 179.92 54.6124C179.852 54.5423 179.766 54.4924 179.672 54.4677L178.658 51.5089" stroke="#002116" stroke-linecap="round" stroke-linejoin="round"/>
<path d="M176.002 57.6699C177.5 58.001 179.054 57.9459 180.525 57.5095" stroke="#002116" stroke-linecap="round" stroke-linejoin="round"/>
<path d="M175.144 51.6362C175.144 52.0565 174.934 52.3939 174.675 52.3939C174.416 52.3939 174.211 52.0565 174.211 51.6362C174.211 51.2159 174.421 50.8785 174.675 50.8785C174.928 50.8785 175.144 51.1993 175.144 51.6362Z" fill="#002116"/>
<path d="M181.07 51.5974C181.07 52.0177 180.86 52.3551 180.606 52.3551C180.352 52.3551 180.136 52.0177 180.136 51.5974C180.136 51.1771 180.347 50.8397 180.606 50.8397C180.865 50.8397 181.07 51.1992 181.07 51.5974Z" fill="#002116"/>
<path d="M173.353 50.4803C173.353 50.4803 173.892 49.1198 175.614 49.6009" stroke="#002116" stroke-linecap="round" stroke-linejoin="round"/>
<path d="M179.122 49.6784C179.122 49.6784 180.741 48.4783 181.928 50.5578" stroke="#002116" stroke-linecap="round" stroke-linejoin="round"/>
<path d="M164.383 105.293C164.383 105.293 169.143 106.399 170.233 106.173C171.662 105.899 172.971 105.172 173.973 104.093C175.382 102.655 176.548 101.455 176.548 102.655C176.552 103.129 176.465 103.599 176.291 104.037C176.117 104.476 175.859 104.875 175.533 105.21C174.993 105.852 173.973 106.571 173.741 107.61C173.509 108.65 173.822 109.447 175.069 109.928C176.316 110.409 180.212 111.122 180.212 112.14C180.212 113.158 179.899 115.58 178.496 116.376C177.093 117.173 173.666 116.614 173.666 116.614C173.666 116.614 176.472 118.212 175.927 118.616C175.382 119.02 173.741 118.456 172.964 117.737C172.187 117.018 171.885 116.935 169.607 115.259C167.33 113.583 165.397 111.581 164.307 110.945C163.717 110.662 163.171 110.289 162.688 109.839C162.062 109.286 161.83 108.18 162.294 106.886C162.452 106.503 162.687 106.157 162.982 105.872C163.278 105.586 163.628 105.366 164.01 105.227L164.383 105.293Z" fill="white" stroke="#002116" stroke-linecap="round" stroke-linejoin="round"/>
<path d="M201.422 96.1843C201.422 96.1843 195.809 97.2904 195.264 97.6997C194.719 98.1089 195.264 99.7792 195.264 99.7792C195.264 99.7792 190.504 102.096 188.712 103.374C186.92 104.652 188.556 107.212 188.637 107.527C188.637 107.527 190.04 112.245 192.377 113.843C194.714 115.442 197.131 114.877 199.474 112.322C201.816 109.767 203.295 106.239 204.385 105.05C205.475 103.861 206.646 102.732 206.258 100.072C205.869 97.4121 203.84 97.1135 203.84 97.1135" fill="#CEE8DB"/>
<path d="M201.422 96.1843C201.422 96.1843 195.809 97.2904 195.264 97.6997C194.719 98.1089 195.264 99.7792 195.264 99.7792C195.264 99.7792 190.504 102.096 188.712 103.374C186.92 104.652 188.556 107.212 188.637 107.527C188.637 107.527 190.04 112.245 192.377 113.843C194.714 115.442 197.131 114.877 199.474 112.322C201.816 109.767 203.295 106.239 204.385 105.05C205.475 103.861 206.646 102.732 206.258 100.072C205.869 97.4121 203.84 97.1135 203.84 97.1135" stroke="#002116" stroke-linecap="round" stroke-linejoin="round"/>
<path d="M189.959 106.731C189.959 106.731 186.375 107.688 185.361 107.771C184.346 107.854 184.19 108.009 183.569 107.528C182.948 107.046 180.056 105.315 178.712 103.695C177.368 102.074 176.369 101.776 176.526 102.655C176.682 103.534 176.369 104.17 177.308 104.812C178.248 105.454 179.176 107.212 179.176 107.931C179.176 108.65 179.1 108.888 177.152 109.59C175.204 110.293 170.757 111.189 171.215 111.747C171.674 112.306 172.619 112.466 173.633 112.389C174.648 112.311 178.857 111.67 179.165 111.908C179.267 112.014 179.343 112.143 179.387 112.285C179.431 112.427 179.442 112.578 179.42 112.725C179.397 112.872 179.342 113.012 179.257 113.133C179.173 113.254 179.062 113.354 178.933 113.423C178.231 113.904 175.738 113.904 174.254 114.065C172.77 114.225 172.694 114.618 173.32 114.944C174.325 115.328 175.394 115.507 176.467 115.469C177.713 115.469 179.165 115.342 178.544 115.74C177.924 116.138 177.06 116.221 175.501 116.459C173.941 116.697 173.396 115.984 173.633 116.62C173.871 117.256 175.738 117.261 178.075 117.173C180.202 117.061 182.268 116.403 184.082 115.259C185.641 114.297 191.33 112.859 191.724 112.544C192.118 112.228 192.733 110.381 192.344 108.147C191.956 105.913 189.959 106.731 189.959 106.731Z" fill="white" stroke="#002116" stroke-linecap="round" stroke-linejoin="round"/>
<path d="M196.122 97.379C197.642 96.0905 199.288 94.9673 201.034 94.0275" stroke="#002116" stroke-linecap="round" stroke-linejoin="round"/>
<path d="M174.599 112.433C174.599 112.433 179.036 111.913 179.483 111.847C179.931 111.78 180.752 112.3 180.369 112.887C179.985 113.473 179.797 113.34 178.21 113.666C176.635 113.912 175.043 114.021 173.45 113.993" fill="white"/>
<path d="M174.599 112.433C174.599 112.433 179.036 111.913 179.483 111.847C179.931 111.78 180.752 112.3 180.369 112.887C179.985 113.473 179.797 113.34 178.21 113.666C176.635 113.912 175.043 114.021 173.45 113.993" stroke="#002116" stroke-linecap="round" stroke-linejoin="round"/>
<path d="M175.106 115.552C175.106 115.552 180.05 115.226 179.926 115.619C179.802 116.011 179.483 116.526 177.708 116.658C175.932 116.791 173.93 116.918 172.251 116.072" fill="white"/>
<path d="M175.106 115.552C175.106 115.552 180.05 115.226 179.926 115.619C179.802 116.011 179.483 116.526 177.708 116.658C175.932 116.791 173.93 116.918 172.251 116.072" stroke="#002116" stroke-linecap="round" stroke-linejoin="round"/>
<path d="M125.66 186.21C125.66 186.21 126.502 187.067 123.145 189.169C119.788 191.27 116.987 192.227 116.987 193.472C116.987 194.716 120.716 195.955 124.543 194.998C128.369 194.041 129.94 193.759 132.099 193.377C134.257 192.996 134.9 191.082 134.9 188.4C134.9 185.718 129.211 185.082 128.558 184.96C127.905 184.838 126.129 185.159 125.66 186.21Z" fill="white" stroke="#002116" stroke-linecap="round" stroke-linejoin="round"/>
<path d="M134.052 188.406C132.639 190.575 130.91 192.509 128.925 194.141C126.032 196.353 125.66 197.387 127.155 197.962C128.65 198.537 132.935 198.725 135.828 197.581C138.72 196.436 140.118 194.716 140.955 193.947C141.791 193.178 142.261 193.66 142.261 190.601C142.261 187.543 139.087 186.492 136.481 186.686C133.874 186.879 134.052 188.406 134.052 188.406Z" fill="white" stroke="#002116" stroke-linecap="round" stroke-linejoin="round"/>
<path d="M122.681 126.099C122.681 126.099 123.523 143.492 123.803 148.558C124.084 153.624 126.135 172.638 126.502 177.129C126.869 181.62 126.874 182.958 126.874 182.958C126.874 182.958 125.196 184.202 125.196 184.49C125.196 184.778 125.007 187.449 125.007 187.449C126.246 188.148 127.561 188.694 128.925 189.075C130.424 189.421 131.967 189.518 133.496 189.362C133.496 189.362 136.573 190.413 139.185 191.176C141.797 191.94 142.822 191.558 142.822 191.558C142.822 191.558 143.567 187.736 143.751 186.492C143.934 185.248 147.107 172.063 147.107 166.029C147.107 159.995 146.363 157.236 145.246 153.702C144.128 150.168 146.735 137.547 147.669 132.962C148.204 130.405 148.609 127.82 148.883 125.219C148.883 125.219 140.863 129.445 122.681 126.099Z" fill="#002116" stroke="#002116" stroke-linecap="round" stroke-linejoin="round"/>
<path d="M133.124 131.945C133.124 131.945 132.654 144.665 132.654 149.526C132.654 154.387 133.869 160.327 134.424 166.062C134.98 171.797 134.613 181.161 133.96 182.787C133.307 184.413 132.843 184.999 132.935 186.227C133.027 187.454 133.124 189.185 133.124 189.185" stroke="white" stroke-linecap="round" stroke-linejoin="round"/>
<path d="M131.629 57.9576C131.629 57.9576 131.089 56.2376 130.226 56.9068C129.362 57.576 129.951 58.8203 130.695 60.0647C131.44 61.3091 132.277 61.5911 132.374 60.9219C132.471 60.2527 131.629 57.9576 131.629 57.9576Z" fill="white" stroke="#002116" stroke-linecap="round" stroke-linejoin="round"/>
<path d="M131.629 58.7263L130.695 55.961C130.695 55.961 126.783 54.3351 127.997 50.3199C129.211 46.3048 138.537 42.6768 141.052 42.6768C143.567 42.6768 148.419 46.1167 149.261 50.1319C150.103 54.147 147.302 57.775 147.302 57.775C147.302 57.775 146.087 61.309 145.143 61.121C144.199 60.9329 144.765 58.1566 143.556 55.961C142.347 53.7654 141.597 52.6427 140.291 53.1958C138.985 53.7488 133.577 55.408 133.113 56.1546C132.649 56.9012 131.818 59.2019 131.629 58.7263Z" fill="#002116" stroke="#002116" stroke-linecap="round" stroke-linejoin="round"/>
<path d="M150.561 98.0979L151.025 100.581L145.245 109.756L146.551 111.858C149.294 109.984 151.799 107.77 154.01 105.265C157.739 101.062 158.112 100.487 158.112 98.7671C158.112 97.0471 156.811 94.0828 156.811 94.0828C156.811 94.0828 154.199 98.0979 150.561 98.0979Z" fill="white" stroke="#002116" stroke-linecap="round" stroke-linejoin="round"/>
<path d="M118.946 92.5564C118.946 92.5564 117.079 97.1412 117.456 98.5736C117.834 100.006 124.262 108.418 124.262 108.418L125.379 105.265C125.379 105.265 122.956 100.106 122.956 98.3856C122.956 96.6656 123.798 93.3196 123.798 93.3196L118.946 92.5564Z" stroke="#002116" stroke-linecap="round" stroke-linejoin="round"/>
<path d="M135.455 69.8094C135.455 69.8094 127.436 72.9618 125.941 73.443C124.446 73.9241 123.42 74.2062 123.328 74.6818C123.237 75.1575 118.763 86.9153 117.931 88.5413C117.1 90.1672 115.972 91.9812 115.972 91.9812C117.059 92.6774 118.179 93.316 119.329 93.8948C120.503 94.4203 121.72 94.8349 122.967 95.1336L123.507 101.732L118.002 126.575C118.002 126.575 129.006 129.727 136.351 129.445C141.028 129.282 145.652 128.379 150.059 126.768C151.463 126.287 153.605 125.43 153.605 125.43L146.589 98.3856L147.129 94.3704L147.501 98.2915C147.501 98.2915 151.231 99.1488 153.373 98.5736C155.516 97.9984 158.23 95.8084 158.23 95.8084L151.328 73.7361L138.461 70.1026L135.455 69.8094Z" fill="#CEE8DB" stroke="#002116" stroke-linecap="round" stroke-linejoin="round"/>
<path d="M144.517 71.7838L138.532 70.097L135.455 69.8094L132.687 70.9155C132.633 72.4198 132.562 74.9805 132.562 78.0499C132.562 83.0274 133.102 87.4186 134.522 86.5558C135.941 85.6931 142.617 76.4295 143.75 73.8357C144.057 73.1728 144.313 72.4869 144.517 71.7838Z" fill="#CEE8DB" stroke="#002116" stroke-linecap="round" stroke-linejoin="round"/>
<path d="M147.205 94.3704C147.016 94.1823 146.179 85.9585 146.179 85.9585" stroke="#002116" stroke-linecap="round" stroke-linejoin="round"/>
<path d="M122.956 95.1337C122.956 95.1337 122.303 91.8873 122.492 90.6429C122.681 89.3985 123.981 82.043 123.981 82.043" stroke="#002116" stroke-linecap="round" stroke-linejoin="round"/>
<path d="M126.129 108.899C126.129 108.899 121.839 110.331 121.839 110.619C121.839 110.907 121.742 112.24 121.742 112.24L126.129 110.138V108.899Z" stroke="#002116" stroke-linecap="round" stroke-linejoin="round"/>
<path d="M137.506 109.568L137.317 110.807L146.643 113.29L147.107 112.339L137.506 109.568Z" stroke="#002116" stroke-linecap="round" stroke-linejoin="round"/>
<path d="M140.582 90.5654C140.455 90.5654 140.333 90.5135 140.243 90.4212C140.153 90.3289 140.102 90.2037 140.102 90.0732C140.102 88.414 140.906 84.4099 141.689 80.5386C142.309 77.4581 142.898 74.5435 142.898 73.631C142.922 73.1281 142.841 72.6257 142.66 72.1575C142.48 71.6892 142.204 71.2658 141.851 70.9155C140.733 69.8536 138.747 69.4223 135.952 69.6324C130.118 70.0749 129.691 83.4587 129.686 83.5859C129.683 83.7145 129.631 83.8369 129.542 83.9268C129.452 84.0167 129.331 84.0671 129.206 84.067C129.143 84.0649 129.08 84.05 129.023 84.0233C128.966 83.9966 128.914 83.9585 128.871 83.9112C128.828 83.864 128.794 83.8085 128.772 83.7479C128.75 83.6873 128.739 83.6229 128.741 83.5582C128.741 82.972 129.2 69.1789 135.898 68.6259C138.974 68.3991 141.203 68.9135 142.52 70.1744C142.969 70.6171 143.321 71.1518 143.555 71.7436C143.788 72.3354 143.897 72.971 143.875 73.6089C143.875 74.6209 143.308 77.447 142.649 80.7156C141.91 84.3602 141.079 88.4914 141.079 90.0511C141.082 90.1189 141.071 90.1867 141.047 90.2502C141.024 90.3136 140.987 90.3713 140.941 90.4196C140.894 90.468 140.838 90.5058 140.776 90.5309C140.715 90.556 140.649 90.5677 140.582 90.5654Z" fill="#002116" stroke="#002116" stroke-linecap="round" stroke-linejoin="round"/>
<path d="M134.425 66.8506C134.425 66.8506 134.425 69.6158 134.333 70.1689C134.241 70.7219 134.333 73.1332 134.333 76.3851C134.333 79.6371 134.873 81.8272 135.639 81.0639C136.405 80.3007 141.327 73.5148 141.608 72.1764C141.773 71.4242 141.867 70.6574 141.889 69.8868L142.261 66.0597C142.261 66.0597 136.481 67.7797 134.052 67.0165" fill="white"/>
<path d="M134.425 66.8506C134.425 66.8506 134.425 69.6158 134.333 70.1689C134.241 70.7219 134.333 73.1332 134.333 76.3851C134.333 79.6371 134.873 81.8272 135.639 81.0639C136.405 80.3007 141.327 73.5148 141.608 72.1764C141.773 71.4242 141.867 70.6574 141.889 69.8868L142.261 66.0597C142.261 66.0597 136.481 67.7797 134.052 67.0165" stroke="#002116" stroke-linecap="round" stroke-linejoin="round"/>
<path d="M144.031 61.1154C144.517 64.4351 144.642 67.7998 144.404 71.1477C144.031 76.9769 143.357 79.709 141.705 80.5496C140.054 81.3902 142.185 82.3415 144.7 82.4355C147.215 82.5295 150.95 82.1479 151.603 74.5048C152.256 66.8616 146.848 61.8897 146.379 60.9329C146.259 60.7107 146.079 60.5285 145.861 60.4079C145.643 60.2874 145.395 60.2335 145.148 60.2527C144.901 60.2719 144.664 60.3634 144.466 60.5163C144.268 60.6693 144.117 60.8772 144.031 61.1154Z" fill="#002116" stroke="#002116" stroke-linecap="round" stroke-linejoin="round"/>
<path d="M125.849 90.2778H125.811C125.746 90.2738 125.682 90.2561 125.623 90.2256C125.565 90.195 125.513 90.1525 125.472 90.1005C125.43 90.0486 125.399 89.9884 125.382 89.9237C125.364 89.859 125.36 89.7913 125.369 89.7247C125.369 89.4537 125.908 83.0549 129.206 83.0549C132.503 83.0549 132.579 89.2104 132.579 89.4759C132.579 89.6064 132.528 89.7316 132.438 89.8239C132.348 89.9162 132.226 89.9681 132.099 89.9681C131.971 89.9681 131.849 89.9162 131.759 89.8239C131.669 89.7316 131.618 89.6064 131.618 89.4759C131.618 89.4206 131.548 84.0449 129.211 84.0449C127.204 84.0449 126.453 88.1983 126.335 89.8022C126.329 89.9303 126.275 90.0513 126.185 90.1399C126.094 90.2285 125.974 90.2779 125.849 90.2778Z" fill="#002116"/>
<path d="M125.849 89.4041C125.849 89.4041 125.849 94.1824 126.032 95.1337C126.216 96.0849 128.553 98.098 131.348 99.3424" stroke="#002116" stroke-width="2" stroke-linecap="round" stroke-linejoin="round"/>
<path d="M131.91 88.8066C131.91 88.8066 132.093 93.585 131.165 95.6866C130.237 97.7882 127.436 98.651 126.221 99.1266" stroke="#002116" stroke-width="2" stroke-linecap="round" stroke-linejoin="round"/>
<path d="M132.654 99.5303C132.637 99.3141 132.542 99.1124 132.386 98.9653C132.231 98.8182 132.027 98.7366 131.815 98.7366C131.603 98.7366 131.4 98.8182 131.244 98.9653C131.089 99.1124 130.993 99.3141 130.976 99.5303C130.967 99.649 130.981 99.7685 131.019 99.881C131.057 99.9936 131.118 100.097 131.196 100.184C131.275 100.272 131.371 100.342 131.477 100.39C131.584 100.437 131.699 100.462 131.815 100.462C131.931 100.462 132.046 100.437 132.153 100.39C132.259 100.342 132.355 100.272 132.434 100.184C132.513 100.097 132.573 99.9936 132.611 99.881C132.649 99.7685 132.664 99.649 132.654 99.5303Z" fill="white" stroke="#002116" stroke-linecap="round" stroke-linejoin="round"/>
<path d="M126.874 99.3423C126.875 99.1714 126.827 99.0041 126.735 98.8615C126.643 98.7189 126.512 98.6074 126.358 98.5413C126.205 98.4751 126.035 98.4572 125.871 98.4899C125.708 98.5226 125.557 98.6043 125.439 98.7247C125.321 98.8452 125.24 98.9989 125.207 99.1664C125.174 99.3339 125.19 99.5077 125.254 99.6656C125.318 99.8236 125.425 99.9587 125.564 100.054C125.703 100.149 125.866 100.2 126.032 100.2C126.255 100.2 126.468 100.109 126.626 99.9488C126.784 99.7882 126.873 99.5702 126.874 99.3423Z" fill="white" stroke="#002116" stroke-linecap="round" stroke-linejoin="round"/>
<path d="M143.378 91.8872C143.379 91.3005 143.21 90.7266 142.893 90.2382C142.575 89.7499 142.124 89.3691 141.595 89.1441C141.066 88.919 140.484 88.8598 139.922 88.9741C139.361 89.0883 138.845 89.3707 138.44 89.7856C138.035 90.2005 137.759 90.7292 137.648 91.3047C137.536 91.8803 137.594 92.4768 137.814 93.0187C138.033 93.5606 138.405 94.0235 138.882 94.3488C139.358 94.6741 139.918 94.8471 140.491 94.846C141.256 94.8446 141.99 94.5324 142.531 93.9778C143.072 93.4232 143.377 92.6715 143.378 91.8872Z" fill="white" stroke="#002116" stroke-linecap="round" stroke-linejoin="round"/>
<path d="M142.072 91.8872C142.072 91.5654 141.979 91.2508 141.804 90.9833C141.63 90.7158 141.382 90.5074 141.091 90.3845C140.801 90.2616 140.482 90.2297 140.174 90.2929C139.866 90.3561 139.583 90.5115 139.361 90.7394C139.14 90.9674 138.989 91.2576 138.929 91.5734C138.868 91.8892 138.9 92.2163 139.021 92.5133C139.142 92.8103 139.346 93.0638 139.608 93.2418C139.869 93.4198 140.177 93.5142 140.491 93.5132C140.911 93.5117 141.313 93.3397 141.609 93.035C141.906 92.7302 142.072 92.3175 142.072 91.8872Z" fill="white" stroke="#002116" stroke-linecap="round" stroke-linejoin="round"/>
<path d="M142.072 51.2711C142.072 51.2711 133.96 54.5175 132.935 55.0706C132.494 55.3439 132.025 55.5683 131.537 55.7398C131.537 55.7398 132.001 63.0013 132.19 64.9149C132.379 66.8284 135.358 68.6424 137.97 68.5484C140.582 68.4544 142.725 67.0165 143.195 66.1592C143.664 65.302 144.965 62.7193 144.965 62.7193C144.965 62.7193 148.041 62.1662 148.203 59.3733C148.365 56.5804 147.458 57.1611 146.433 57.7473C145.407 58.3336 144.846 58.7041 144.846 58.7041C145.045 57.6903 144.879 56.6368 144.376 55.7398C143.567 54.3295 142.261 52.6095 142.072 51.2711Z" fill="white" stroke="#002116" stroke-linecap="round" stroke-linejoin="round"/>
<path d="M135.455 60.1587C135.455 60.1587 136.2 61.3035 136.853 61.2095" stroke="#002116" stroke-linecap="round" stroke-linejoin="round"/>
<path d="M135.175 61.8787C135.175 61.8787 136.756 63.4106 139.492 62.1663" stroke="#002116" stroke-linecap="round" stroke-linejoin="round"/>
<path d="M139.185 57.8636C139.185 57.8636 141.095 57.0063 142.169 58.5327" stroke="#002116" stroke-width="1.5" stroke-linecap="round" stroke-linejoin="round"/>
<path d="M135.455 57.6755C135.455 57.6755 133.96 56.7187 132.843 57.4819" stroke="#002116" stroke-width="1.5" stroke-linecap="round" stroke-linejoin="round"/>
<path d="M136.551 57.316C136.552 57.8503 136.398 58.3729 136.109 58.8175C135.82 59.2622 135.409 59.609 134.928 59.814C134.446 60.0189 133.916 60.0728 133.405 59.9689C132.893 59.8649 132.423 59.6078 132.055 59.23C131.686 58.8522 131.435 58.3708 131.334 57.8467C131.232 57.3227 131.285 56.7796 131.485 56.2862C131.685 55.7928 132.023 55.3714 132.457 55.0752C132.891 54.7791 133.401 54.6216 133.923 54.6227C134.619 54.6241 135.287 54.9084 135.779 55.4132C136.272 55.918 136.549 56.6022 136.551 57.316Z" stroke="#002116" stroke-linecap="round" stroke-linejoin="round"/>
<path d="M143.108 58.0737C143.109 58.6077 142.956 59.1301 142.667 59.5747C142.378 60.0192 141.967 60.366 141.486 60.5711C141.005 60.7762 140.475 60.8305 139.964 60.727C139.453 60.6234 138.983 60.3668 138.614 59.9896C138.245 59.6124 137.994 59.1315 137.892 58.6078C137.79 58.0841 137.842 57.5412 138.041 57.0477C138.24 56.5542 138.578 56.1324 139.011 55.8356C139.444 55.5388 139.953 55.3804 140.475 55.3804C141.172 55.3818 141.84 55.6659 142.333 56.1705C142.827 56.6751 143.105 57.3593 143.108 58.0737V58.0737Z" stroke="#002116" stroke-linecap="round" stroke-linejoin="round"/>
<path d="M136.551 57.316C136.739 57.2506 136.941 57.2382 137.136 57.28C137.33 57.3218 137.51 57.4164 137.657 57.5538" stroke="#002116" stroke-linecap="round" stroke-linejoin="round"/>
<path d="M143.2 58.4995L145.785 58.1234" stroke="#002116" stroke-linecap="round" stroke-linejoin="round"/>
<path d="M33.5556 186.907C32.8407 188.463 31.9611 189.934 30.9326 191.293C29.3729 193.256 28.9789 194.655 30.6736 195.872C32.3682 197.088 35.4553 196.9 37.0096 194.937C38.5639 192.974 41.0681 187.559 41.0681 187.559C41.0681 187.559 35.6064 185.878 33.5556 186.907Z" fill="white" stroke="#002116" stroke-linecap="round" stroke-linejoin="round"/>
<path d="M52.5637 188.118C52.5637 188.118 55.2622 191.763 56.8812 193.648C58.5003 195.534 61.5604 196.447 63.1957 196.353C64.8309 196.259 67.1786 195.7 65.5919 192.714C64.0052 189.727 60.6915 186.829 60.6915 186.829C60.6915 186.829 57.2266 186.829 54.8466 186.547C52.4665 186.265 52.4449 187.559 52.5637 188.118Z" fill="white" stroke="#002116" stroke-linecap="round" stroke-linejoin="round"/>
<path d="M35.0453 119.473C35.0453 119.473 33.9659 132.194 34.3329 141.142C34.6999 150.09 33.0916 167.948 32.5519 172.317C32.0122 176.686 33.043 183.898 33.0916 185.485C33.1402 187.073 33.1941 187.919 33.1941 187.919C33.1941 187.919 33.9929 187.366 36.9342 187.919C38.2621 188.21 39.61 188.395 40.9657 188.472C42.1792 186.368 43.1827 184.145 43.961 181.835C44.8407 178.849 44.3442 175.752 44.2741 174.176C44.2039 172.599 43.9502 170.907 44.123 170.625C44.2957 170.343 47.9008 143.636 48.0951 137.752C48.3159 133.763 48.894 129.803 49.8221 125.922C49.8221 125.922 51.5437 134.14 51.6787 137.315C51.8136 140.489 51.371 166.361 51.5923 171.604C51.8136 176.847 51.4196 178.241 50.8367 179.546C50.2539 180.851 50.4644 181.503 50.8745 182.532C51.2847 183.561 52.5746 188.135 52.5746 188.135C52.5746 188.135 59.1534 188.511 60.0439 188.041C60.9344 187.57 61.2798 187.111 61.2636 186.829C61.2474 186.547 64.4316 179.822 64.1294 177.024C63.8272 174.225 63.4818 174.69 63.1742 169.646C62.8665 164.602 64.8796 122.084 64.8742 119.872C64.8688 117.659 64.5072 121.923 51.0904 119.319C37.6736 116.714 35.4285 117.698 35.0453 119.473Z" fill="#CEE8DB" stroke="#002116" stroke-linecap="round" stroke-linejoin="round"/>
<path d="M52.9524 184.484C52.9524 184.484 57.1674 180.746 60.6808 179.811L52.9524 184.484Z" fill="white"/>
<path d="M52.9524 184.484C52.9524 184.484 57.1674 180.746 60.6808 179.811" stroke="#002116" stroke-linecap="round" stroke-linejoin="round"/>
<path d="M35.7415 182.704C35.7415 182.704 41.0089 180.088 42.5308 179.435L35.7415 182.704Z" fill="white"/>
<path d="M35.7415 182.704C35.7415 182.704 41.0089 180.088 42.5308 179.435" stroke="#002116" stroke-linecap="round" stroke-linejoin="round"/>
<path d="M44.5815 50.3641C44.5815 50.3641 43.1675 47.0956 42.1205 48.2183C41.0735 49.341 41.8668 50.8287 43.3078 52.604C44.7488 54.3793 45.8876 53.2566 45.5853 52.51C45.2831 51.7633 44.5815 50.3641 44.5815 50.3641Z" fill="white" stroke="#002116" stroke-linecap="round" stroke-linejoin="round"/>
<path d="M58.2681 48.5889C58.2681 48.5889 59.6821 45.4144 60.8371 46.9297C61.992 48.4451 59.5094 52.1616 58.8996 52.8142C58.2897 53.4668 57.8958 48.517 57.8958 48.517L58.2681 48.5889Z" fill="white" stroke="#002116" stroke-linecap="round" stroke-linejoin="round"/>
<path d="M27.5704 89.498C27.5704 89.498 27.1765 95.2885 26.6961 96.7817C25.7156 100.301 25.2571 103.951 25.3361 107.61C25.525 111.996 27.2035 121.525 27.2358 124.418C27.2682 127.31 26.3885 127.968 27.333 128.715C28.2774 129.461 30.2851 131.707 31.0137 131.707C31.7423 131.707 32.8541 132.077 32.8271 131.519C32.8001 130.96 32.4439 131.049 32.1363 130.302C31.7435 129.214 31.4226 128.1 31.1756 126.967C31.3973 126.143 31.6658 125.332 31.9797 124.539C31.9797 124.539 32.6274 126.873 32.7515 127.625C32.8756 128.377 33.8903 128.648 33.8309 127.249C33.7715 125.85 33.7445 125.286 33.6798 123.793C33.615 122.299 32.4655 120.994 31.9797 120.242C31.494 119.49 31.1108 119.031 31.0946 118.749C31.0785 118.467 32.6652 108.573 32.7137 105.116C32.7623 101.66 32.8109 98.8557 33.0537 98.2031C33.2966 97.5505 34.5055 91.666 34.5055 91.666L27.5704 89.498Z" fill="white" stroke="#002116" stroke-linecap="round" stroke-linejoin="round"/>
<path d="M72.6456 89.7745C72.6456 89.7745 73.0342 95.5982 73.5199 97.1356C74.4887 100.701 74.9451 104.392 74.8745 108.092C74.6856 112.466 72.9964 121.84 72.964 124.733C72.9316 127.625 73.8167 128.355 72.8723 129.019C71.9278 129.683 69.9147 131.74 69.1862 131.679C68.4576 131.618 67.3512 131.884 67.3728 131.325C67.3944 130.767 67.756 130.894 68.0636 130.175C68.4623 129.109 68.7852 128.015 69.0296 126.901C68.8062 126.051 68.5359 125.214 68.2201 124.396C68.2201 124.396 67.5725 126.674 67.4483 127.41C67.3242 128.145 66.315 128.333 66.369 126.94C66.4229 125.546 66.4499 124.987 66.5147 123.5C66.5794 122.012 67.729 120.806 68.2201 120.104C68.7112 119.401 69.089 118.965 69.1052 118.688C69.1214 118.411 67.5347 108.368 67.4861 104.906C67.4375 101.444 67.3944 98.6399 67.1461 97.9652C66.8979 97.2905 65.6943 91.2954 65.6943 91.2954L72.6456 89.7745Z" fill="white" stroke="#002116" stroke-linecap="round" stroke-linejoin="round"/>
<path d="M47.5014 61.1045C47.5014 61.1045 42.3203 63.6264 39.1901 65.0256C36.0599 66.4248 32.1255 68.1061 32.1741 68.7642C32.2226 69.4223 28.8387 82.4909 27.7702 85.2009C26.7016 87.9108 25.7031 90.0567 25.7031 90.0567C25.7031 90.0567 29.5296 92.6781 32.0122 93.2312C33.6121 93.5784 35.2362 93.7966 36.8694 93.8838L33.9173 120.784C33.9173 120.784 39.8539 123.212 49.1528 123.306C54.9227 123.35 60.6898 123.038 66.423 122.371C66.423 122.371 67.2974 100.249 67.2056 98.087C67.1423 96.902 67.1838 95.7136 67.3297 94.5364C68.7462 94.8529 70.2183 94.7901 71.6041 94.3539C72.823 93.8891 74.0174 93.3593 75.1823 92.7666C75.1823 92.7666 70.6543 74.2726 69.9095 71.7507C69.1647 69.2288 69.5101 68.8582 68.8625 68.5762C68.2148 68.2941 61.0585 65.1196 58.7216 63.7204C56.3847 62.3212 55.4834 62.3156 53.438 61.663C51.3926 61.0104 48.5538 60.1698 47.5014 61.1045Z" fill="#CEE8DB" stroke="#002116" stroke-linecap="round" stroke-linejoin="round"/>
<path d="M67.3405 94.5363L66.1855 77.9503" stroke="#002116" stroke-linecap="round" stroke-linejoin="round"/>
<path d="M37.0852 103.225L47.1937 102.943C47.1937 102.943 46.7458 115.928 46.4381 117.322C46.1305 118.716 44.0797 119.656 41.4298 119.562C38.7799 119.468 37.177 118.163 36.8748 117.51" stroke="#002116" stroke-linecap="round" stroke-linejoin="round"/>
<path d="M36.5186 104.906L47.1775 104.812" stroke="#002116" stroke-linecap="round" stroke-linejoin="round"/>
<path d="M64.5828 119.567C63.5898 119.849 61.2205 119.849 60.7024 118.356C60.1843 116.863 60.5243 103.507 60.5243 103.507L65.727 103.689" stroke="#002116" stroke-linecap="round" stroke-linejoin="round"/>
<path d="M60.481 104.624L65.43 105.371" stroke="#002116" stroke-linecap="round" stroke-linejoin="round"/>
<path d="M36.8694 93.8837C36.8694 93.8837 37.2364 81.0917 37.0907 77.7291" stroke="#002116" stroke-linecap="round" stroke-linejoin="round"/>
<path d="M45.9578 54.8439C45.9578 54.8439 46.7457 62.5866 46.7781 63.4383C46.8105 64.29 47.7334 66.6128 48.6077 67.8295C49.482 69.0462 51.9268 72.9673 52.8982 72.2152C53.8697 71.463 56.6059 67.2654 56.8704 64.9315C57.1348 62.5976 57.2644 57.0893 57.2644 57.0893C57.2644 57.0893 53.7186 57.2773 51.0309 56.3426C48.3432 55.408 45.9578 54.8439 45.9578 54.8439Z" fill="white" stroke="#002116" stroke-linecap="round" stroke-linejoin="round"/>
<path d="M42.18 43.263L44.193 49.8056C44.193 49.8056 44.9486 54.6614 46.3087 56.6192C47.6687 58.577 52.4342 61.3865 54.5984 60.8224C56.7625 60.2582 59.3153 58.2064 59.2181 55.9666C59.121 53.7267 58.6784 47.1897 58.7378 44.6678C58.7972 42.1458 58.1981 37.008 56.7086 35.6088C55.219 34.2096 50.2322 33.3634 46.6541 34.8622C43.0759 36.3609 40.6473 39.1538 42.18 43.263Z" fill="#002116" stroke="#002116" stroke-linecap="round" stroke-linejoin="round"/>
<path d="M44.3063 50.3641C44.3063 50.3641 44.1282 50.4582 44.5978 48.5888C45.0673 46.7195 46.4813 45.7849 46.6216 44.8557C46.7619 43.9266 44.8406 43.639 45.0511 42.2398C45.2616 40.8406 47.1397 39.8119 51.1281 39.3418C55.1164 38.8717 57.7717 41.3052 57.6422 42.5163C57.5127 43.7275 57.1565 43.9211 57.7393 44.7617C58.3222 45.6024 58.5705 47.1896 58.6136 48.1243C58.6568 49.0589 59.1533 52.4159 58.2898 53.4446C57.4263 54.4733 56.7787 54.2853 55.9206 53.4446C55.0624 52.604 54.744 51.4868 52.8335 51.4868C50.923 51.4868 50.3131 52.2334 49.9785 52.9801C49.6439 53.7267 49.3201 54.6392 48.2299 54.6392C47.1397 54.6392 46.3626 53.6105 45.5854 52.4878C45.1118 51.811 44.6844 51.1014 44.3063 50.3641Z" fill="white" stroke="#002116" stroke-linecap="round" stroke-linejoin="round"/>
<path d="M52.5204 45.7849C52.5204 45.7849 54.2852 50.8287 54.2097 51.2048C54.1341 51.5809 53.2706 52.698 52.2614 52.604C51.2522 52.51 50.7502 51.2988 50.7502 51.2988" stroke="#002116" stroke-linecap="round" stroke-linejoin="round"/>
<path d="M53.0171 45.1157C52.9689 44.9469 52.9585 44.7691 52.9867 44.5956C53.015 44.4221 53.0812 44.2574 53.1803 44.1138C53.2794 43.9702 53.409 43.8514 53.5592 43.7663C53.7095 43.6813 53.8765 43.6321 54.0479 43.6225C54.6119 43.5945 55.1753 43.6883 55.7015 43.898C56.2278 44.1076 56.7051 44.4283 57.1026 44.8392" stroke="#002116" stroke-width="2" stroke-linecap="round" stroke-linejoin="round"/>
<path d="M50.3618 44.5626C50.1014 44.3642 49.8012 44.2275 49.4829 44.1625C49.1646 44.0975 48.8363 44.1057 48.5215 44.1866C47.4421 44.4686 46.1414 46.1499 46.1576 46.4319" stroke="#002116" stroke-width="2" stroke-linecap="round" stroke-linejoin="round"/>
<path d="M50.0109 47.2836C50.0109 47.7482 49.822 48.1243 49.5414 48.1243C49.2608 48.1243 49.0017 47.7482 49.0017 47.2836C49.0017 46.8191 49.1906 46.443 49.4658 46.443C49.7411 46.443 49.9893 46.8191 50.0109 47.2836Z" fill="#002116"/>
<path d="M55.2836 47.0017C55.2836 47.4662 55.0947 47.8423 54.8195 47.8423C54.5442 47.8423 54.2798 47.4662 54.2798 47.0017C54.2798 46.5371 54.4687 46.161 54.7439 46.161C55.0192 46.161 55.262 46.5371 55.2836 47.0017Z" fill="#002116"/>
<path d="M50.5991 54.6613C50.5991 54.6613 52.3639 55.502 55.0462 54.2853" stroke="white" stroke-width="2" stroke-linecap="round" stroke-linejoin="round"/>
<path d="M44.1067 62.8134C44.1067 62.8134 46.8052 72.3369 49.7033 78.5974C52.6015 84.858 54.9006 89.2436 54.9006 89.2436C54.9006 89.2436 59.2667 74.2062 59.2451 69.3338C59.2235 64.4614 59.1965 63.9195 59.1965 63.9195" stroke="#002116" stroke-linecap="round" stroke-linejoin="round"/>
<path d="M58.1333 98.7395H52.5691L52.1643 89.2159H57.7232L58.1333 98.7395Z" fill="white" stroke="#002116" stroke-linecap="round" stroke-linejoin="round"/>
<path d="M99.0098 191.016C99.0098 191.016 101.924 193.444 104.018 194.096C106.112 194.749 107.208 195.125 106.754 196.154C106.301 197.182 104.839 197.553 100.559 197.647C96.279 197.741 95.4532 196.806 93.8126 196.336C92.1719 195.866 89.8944 196.336 89.1658 195.407C88.4372 194.478 88.7071 193.068 88.7071 191.575C88.7071 190.081 94.9999 189.429 96.6406 189.987C97.4641 190.242 98.2584 190.587 99.0098 191.016Z" fill="white" stroke="#002116" stroke-linecap="round" stroke-linejoin="round"/>
<path d="M90.7146 192.885C90.7146 192.885 93.4509 195.872 95.7284 197.177C98.0059 198.482 99.2796 199.422 98.7345 200.075C98.1894 200.728 96.457 201.568 91.8966 201.104C87.3361 200.639 86.4295 199.605 84.2437 198.018C82.0579 196.43 81.0541 196.618 80.3255 195.778C79.5969 194.937 79.5969 193.068 79.5969 193.068L90.7146 192.885Z" fill="white" stroke="#002116" stroke-linecap="round" stroke-linejoin="round"/>
<path d="M104.385 123.771C104.385 123.771 102.766 145.998 102.108 150.013C101.449 154.028 100.829 156.273 100.92 159.072C101.012 161.87 101.833 169.906 100.192 174.673C98.5512 179.441 98.5728 185.226 98.7347 186.907C98.8966 188.588 99.4633 190.828 99.3715 191.204C99.2798 191.58 96.6407 193.068 94.7248 193.444C93.5207 193.671 92.3004 193.795 91.0764 193.814C89.2223 194.485 87.2961 194.925 85.3395 195.125C82.6032 195.313 78.8631 194.473 78.8631 194.473C78.8631 194.473 78.8631 187.559 78.4962 183.074C78.1292 178.589 76.8771 171.405 78.4044 165.985C79.9317 160.565 79.5917 157.689 79.4838 155.897C79.3759 154.105 79.4838 146.092 79.392 145.81C79.3003 145.528 78.7552 122.183 78.7552 122.183C78.7552 122.183 88.6856 123.677 95.34 123.024C101.994 122.371 103.727 122.371 103.727 122.371C103.727 122.371 105.206 120.69 104.385 123.771Z" fill="#002116" stroke="#002116" stroke-linecap="round" stroke-linejoin="round"/>
<path d="M91.535 192.509C91.53 190.997 91.3488 189.492 90.9954 188.024C90.4557 186.16 90.3531 179.529 90.6284 176.819C90.9036 174.109 92.2474 167.296 92.2474 163.463C92.2474 159.63 92.6144 153.751 92.6144 153.751" stroke="white" stroke-linecap="round" stroke-linejoin="round"/>
<path d="M110.397 151.694L100.014 151.6C99.5603 151.6 99.5603 144.504 99.5603 144.504L110.397 151.694Z" fill="white" stroke="#002116" stroke-linecap="round" stroke-linejoin="round"/>
<path d="M88.4373 125.081C88.4373 125.081 98.8265 125.734 104.661 124.705L102.653 74.4606C102.653 74.4606 101.287 72.1267 97.6391 70.816C93.9908 69.5053 89.6193 71.3691 88.0703 73.1499C86.5214 74.9307 87.617 124.893 87.617 124.893L88.4373 125.081Z" fill="#CEE8DB" stroke="#002116" stroke-linecap="round" stroke-linejoin="round"/>
<path d="M88.8907 70.8159C88.8907 70.8159 78.5933 76.1418 77.0444 77.0765C75.4955 78.0111 75.4253 81.3681 75.4253 82.9609C75.4253 84.5537 75.8786 155.245 75.8786 155.245C79.7764 155.505 83.6892 155.096 87.4551 154.033C91.169 153.038 94.6637 151.326 97.7525 148.99L96.02 110.978L94.0771 77.6351C94.0771 77.6351 92.9006 68.388 88.8907 70.8159Z" fill="white" stroke="#002116" stroke-linecap="round" stroke-linejoin="round"/>
<path d="M91.9885 67.3595C91.9885 67.3595 89.6193 67.6416 88.6154 69.0186C88.0272 69.8311 87.595 70.7508 87.3418 71.7286L86.4297 80.135L89.5275 79.3883L87.9786 83.1214C87.9786 83.1214 89.5275 87.7947 91.2599 91.7158C92.9924 95.637 95.5451 103.667 95.5451 103.667L94.3578 78.5477C94.3578 78.5477 94.3578 71.264 93.8181 69.6989C93.2784 68.1338 92.7171 67.3595 91.9885 67.3595Z" fill="white" stroke="#002116" stroke-linecap="round" stroke-linejoin="round"/>
<path d="M97.9143 72.4973L99.7384 148.614L110.397 151.694L108.848 93.7013C108.848 93.7013 109.124 78.7689 108.212 76.7005C107.3 74.6321 99.1016 70.4455 98.2813 70.5561C97.4609 70.6667 97.9143 72.4973 97.9143 72.4973Z" fill="white" stroke="#002116" stroke-linecap="round" stroke-linejoin="round"/>
<path d="M97.9142 68.6702C98.5778 68.8359 99.1985 69.1473 99.7333 69.5826C100.268 70.018 100.704 70.5671 101.012 71.1921C101.924 73.2439 104.293 79.5984 104.293 79.5984L101.287 79.969L104.477 82.3029L98.8263 104.065L98.1895 80.511L97.6498 70.7994C97.6498 70.7994 97.0021 69.2287 97.9142 68.6702Z" fill="white" stroke="#002116" stroke-linecap="round" stroke-linejoin="round"/>
<path d="M91.2598 64.1849C91.2598 64.1849 91.6267 66.8949 91.0763 68.3881C90.5258 69.8814 92.8087 74.5546 93.7208 77.4471C94.6328 80.3395 95.5449 82.6789 96.09 82.3969C96.6351 82.1148 98.551 71.1921 98.4593 69.7873C98.3675 68.3826 99.2796 64.1849 99.2796 64.1849C99.2796 64.1849 94.2658 65.6782 91.2598 64.1849Z" fill="white" stroke="#002116" stroke-linecap="round" stroke-linejoin="round"/>
<path d="M84.8591 61.3367C87.7295 61.3367 90.0564 58.8458 90.0564 55.773C90.0564 52.7003 87.7295 50.2094 84.8591 50.2094C81.9888 50.2094 79.6619 52.7003 79.6619 55.773C79.6619 58.8458 81.9888 61.3367 84.8591 61.3367Z" fill="#002116" stroke="#002116" stroke-linecap="round" stroke-linejoin="round"/>
<path d="M87.5251 58.389C87.5251 58.389 86.613 55.9611 85.5174 56.8958C84.4218 57.8304 85.5174 59.8822 86.3377 61.0989C87.1581 62.3156 88.707 61.7515 88.5289 60.5459C88.3817 59.7502 88.0358 59.0071 87.5251 58.389Z" fill="white" stroke="#002116" stroke-linecap="round" stroke-linejoin="round"/>
<path d="M101.633 56.8792C101.633 56.8792 102.092 54.5453 102.712 56.1325C102.987 56.7543 103.114 57.434 103.082 58.1158C103.05 58.7975 102.86 59.4617 102.529 60.0537C101.989 60.9883 102.075 60.8943 101.892 60.0537C101.748 59.0012 101.662 57.9414 101.633 56.8792Z" fill="white" stroke="#002116" stroke-linecap="round" stroke-linejoin="round"/>
<path d="M86.2461 53.8926C86.2461 53.8926 87.9785 62.4815 89.0741 64.5389C90.1697 66.5962 93.8126 70.0694 97.0939 68.648C100.375 67.2267 102.199 64.6329 102.199 61.4584C102.199 58.2839 102.653 54.2687 102.108 50.8066C101.833 49.2302 101.041 47.7971 99.8633 46.7443C98.6857 45.6914 97.1928 45.0818 95.6314 45.0162C92.7116 44.9222 88.1566 46.6034 87.2445 49.5955C86.7717 50.9898 86.4372 52.4295 86.2461 53.8926Z" fill="white" stroke="#002116" stroke-linecap="round" stroke-linejoin="round"/>
<path d="M86.3378 57.0672C86.3378 57.0672 91.4433 55.0098 94.7246 52.4879C98.006 49.966 99.0098 48.1022 99.0098 48.1022C99.0098 48.1022 100.559 52.3939 101.196 53.7986C101.832 55.2034 102.378 56.7851 102.378 56.7851C102.378 56.7851 103.381 55.0098 103.381 51.2546C103.381 47.4994 102.378 44.5295 98.5241 42.5662C94.6707 40.6029 88.4102 41.8196 85.5714 44.6235C82.7326 47.4275 83.2939 52.0012 84.0225 53.7765C84.5928 55.0084 85.3773 56.1235 86.3378 57.0672Z" fill="#002116" stroke="#002116" stroke-linecap="round" stroke-linejoin="round"/>
<path d="M97.6391 53.6106C97.6391 53.6106 97.0994 53.7046 97.0994 55.3859C97.0994 57.0672 97.6391 59.8656 97.5527 60.2417C97.4663 60.6178 96.4733 61.7349 95.8257 61.0823" stroke="#002116" stroke-linecap="round" stroke-linejoin="round"/>
<path d="M93.5374 62.7636C93.5374 62.7636 95.9066 63.7923 98.9343 61.923" stroke="#002116" stroke-linecap="round" stroke-linejoin="round"/>
<path d="M98.0059 53.4115C98.0059 53.4115 99.9272 52.6593 101.195 53.7876" stroke="#002116" stroke-linecap="round" stroke-linejoin="round"/>
<path d="M94.8163 53.7986C93.9822 53.5447 93.1012 53.497 92.2456 53.6595C91.39 53.822 90.5842 54.19 89.8943 54.7333" stroke="#002116" stroke-linecap="round" stroke-linejoin="round"/>
<path d="M93.5373 56.503C93.5373 57.0561 93.316 57.5317 93.0407 57.5317C92.7655 57.5317 92.5388 57.0726 92.5388 56.503C92.5388 55.9334 92.7601 55.4799 93.0407 55.4799C93.3214 55.4799 93.5373 55.9389 93.5373 56.503Z" fill="#002116"/>
<path d="M99.4741 56.1326C99.4741 56.6856 99.2474 57.1612 98.9721 57.1612C98.6969 57.1612 98.4702 56.7022 98.4702 56.1326C98.4702 55.5629 98.6969 55.1039 98.9721 55.1039C99.2474 55.1039 99.4741 55.5629 99.4741 56.1326Z" fill="#002116"/>
<path d="M105.297 93.9777L103.678 91.2678C103.219 90.5212 101.125 90.8032 100.122 90.8032C99.6 90.8589 99.098 91.0377 98.6551 91.3255C98.2122 91.6134 97.8404 92.0025 97.5689 92.4624C97.2073 93.209 95.5666 94.4257 96.2034 95.1723C96.8403 95.9189 98.5727 95.4488 98.8479 95.6369C99.1232 95.8249 101.401 97.4122 102.221 97.6942C102.657 97.8584 103.124 97.9207 103.586 97.8767L105.297 93.9777Z" stroke="#002116" stroke-linecap="round" stroke-linejoin="round"/>
<path d="M107.758 76.1418C108.675 76.5754 109.495 77.1964 110.169 77.9668C110.843 78.7372 111.356 79.6406 111.676 80.6215C112.68 83.8901 116.048 105.653 115.319 107.721C114.591 109.789 112.772 111.36 109.582 110.243C106.393 109.126 101.487 103.794 101.487 103.794L105.313 93.9888L108.32 95.576L107.683 86.7991" fill="white"/>
<path d="M107.758 76.1418C108.675 76.5754 109.495 77.1964 110.169 77.9668C110.843 78.7372 111.356 79.6406 111.676 80.6215C112.68 83.8901 116.048 105.653 115.319 107.721C114.591 109.789 112.772 111.36 109.582 110.243C106.393 109.126 101.487 103.794 101.487 103.794L105.313 93.9888L108.32 95.576L107.683 86.7991" stroke="#002116" stroke-linecap="round" stroke-linejoin="round"/>
<path d="M108.303 95.5651C108.303 95.5651 113.134 98.4631 113.592 99.4917" stroke="#002116" stroke-linecap="round" stroke-linejoin="round"/>
<path d="M102.194 82.4908H84.6055V107.71H102.194V82.4908Z" fill="#002116" stroke="#002116" stroke-linecap="round" stroke-linejoin="round"/>
<path d="M92.5389 100.05C92.5389 100.05 95.9066 98.1809 96.9104 97.1522C97.9142 96.1235 98.0977 96.0461 98.6428 96.0461C99.9842 96.0458 101.324 95.9516 102.653 95.7641C103.192 95.576 102.928 96.8702 102.653 97.1633C102.378 97.4564 100.65 97.8214 100.65 97.8214C100.65 97.8214 103.565 97.5394 103.657 98.474C103.722 98.7421 103.714 99.0234 103.633 99.2869C103.552 99.5504 103.401 99.7859 103.198 99.9672L102.928 100.249C102.928 100.249 103.198 102.207 102.928 103.142C102.658 104.076 102.108 104.358 100.92 104.541C99.3357 104.645 97.7447 104.552 96.1818 104.264C95.2697 104.076 92.1719 104.729 92.1719 104.729L92.5389 100.05Z" fill="white" stroke="#002116" stroke-linecap="round" stroke-linejoin="round"/>
<path d="M80.4174 75.3953C80.4174 75.3953 75.0204 76.6064 74.1245 77.165C73.2286 77.7236 70.2063 99.9562 69.5695 103.711C68.9327 107.467 75.2201 108.197 77.1252 108.943C79.0303 109.69 92.9976 110.79 92.9976 110.79L93.1811 99.2096L83.5206 96.6877L83.4289 80.7156" fill="white"/>
<path d="M80.4174 75.3953C80.4174 75.3953 75.0204 76.6064 74.1245 77.165C73.2286 77.7236 70.2063 99.9562 69.5695 103.711C68.9327 107.467 75.2201 108.197 77.1252 108.943C79.0303 109.69 92.9976 110.79 92.9976 110.79L93.1811 99.2096L83.5206 96.6877L83.4289 80.7156" stroke="#002116" stroke-linecap="round" stroke-linejoin="round"/>
<path d="M83.5153 96.6878C83.5153 96.6878 80.1422 95.1005 77.9565 95.9411C75.7707 96.7818 73.9465 101.079 73.9465 101.079" stroke="#002116" stroke-linecap="round" stroke-linejoin="round"/>
<path d="M79.7752 95.565C79.7752 95.565 76.5856 95.377 75.0367 96.0351C74.084 96.4481 73.2405 97.0868 72.5757 97.8989" stroke="#002116" stroke-linecap="round" stroke-linejoin="round"/>
<path d="M97.0939 81.6503H90.8982V83.7076H97.0939V81.6503Z" fill="white" stroke="#002116" stroke-linecap="round" stroke-linejoin="round"/>
</svg>
